<?xml version="1.0" encoding="UTF-8" standalone="no"?>
<svg
   xmlns:dc="http://purl.org/dc/elements/1.1/"
   xmlns:cc="http://creativecommons.org/ns#"
   xmlns:rdf="http://www.w3.org/1999/02/22-rdf-syntax-ns#"
   xmlns:svg="http://www.w3.org/2000/svg"
   xmlns="http://www.w3.org/2000/svg"
   xmlns:sodipodi="http://sodipodi.sourceforge.net/DTD/sodipodi-0.dtd"
   xmlns:inkscape="http://www.inkscape.org/namespaces/inkscape"
   version="1.1"
   viewBox="0 0 1102.9954 570.00397"
   stroke-miterlimit="10"
   id="svg2"
   inkscape:version="0.91 r13725"
   sodipodi:docname="english_simple_schema_ascii.svg"
   width="1102.9954"
   height="570.00397"
   style="fill:none;stroke:none;stroke-linecap:square;stroke-miterlimit:10">
  <metadata
     id="metadata295">
    <rdf:RDF>
      <cc:Work
         rdf:about="">
        <dc:format>image/svg+xml</dc:format>
        <dc:type
           rdf:resource="http://purl.org/dc/dcmitype/StillImage" />
        <dc:title></dc:title>
      </cc:Work>
    </rdf:RDF>
  </metadata>
  <defs
     id="defs293" />
  <sodipodi:namedview
     pagecolor="#ffffff"
     bordercolor="#666666"
     borderopacity="1"
     objecttolerance="10"
     gridtolerance="10"
     guidetolerance="10"
     inkscape:pageopacity="0"
     inkscape:pageshadow="2"
     inkscape:window-width="1855"
     inkscape:window-height="1176"
     id="namedview291"
     showgrid="false"
     inkscape:zoom="0.8241395"
     inkscape:cx="291.22689"
     inkscape:cy="414.25983"
     inkscape:window-x="65"
     inkscape:window-y="24"
     inkscape:window-maximized="1"
     inkscape:current-layer="svg2"
     fit-margin-top="0"
     fit-margin-left="0"
     fit-margin-right="0"
     fit-margin-bottom="0" />
  <clipPath
     id="p.0">
    <path
       d="m 0,0 1152,0 0,864 L 0,864 0,0 Z"
       id="path5"
       inkscape:connector-curvature="0"
       style="clip-rule:nonzero" />
  </clipPath>
  <path
     style="fill:#f3f3f3;fill-rule:evenodd"
     inkscape:connector-curvature="0"
     id="path11"
     d="m 743.91223,397.30974 90.21124,0 0,134.17488 -90.21124,0 z" />
  <path
     style="fill-rule:evenodd;stroke:#4a86e8;stroke-width:2;stroke-linecap:butt;stroke-linejoin:round;stroke-miterlimit:10;stroke-dasharray:8, 6;stroke-dashoffset:0"
     inkscape:connector-curvature="0"
     id="path13"
     d="m 743.91223,397.30974 90.21124,0 0,134.17488 -90.21124,0 z" />
  <path
     style="fill:#f3f3f3;fill-rule:evenodd"
     inkscape:connector-curvature="0"
     id="path21"
     d="m 861.01236,397.30974 90.21124,0 0,134.17488 -90.21124,0 z" />
  <path
     style="fill-rule:evenodd;stroke:#9900ff;stroke-width:2;stroke-linecap:butt;stroke-linejoin:round;stroke-miterlimit:10;stroke-dasharray:8, 6;stroke-dashoffset:0"
     inkscape:connector-curvature="0"
     id="path23"
     d="m 861.01236,397.30974 90.21124,0 0,134.17488 -90.21124,0 z" />
  <path
     style="fill:#f3f3f3;fill-rule:evenodd"
     inkscape:connector-curvature="0"
     id="path31"
     d="m 976.42325,210.21791 125.57205,0 0,105.18674 -125.57205,0 z" />
  <path
     style="fill-rule:evenodd;stroke:#6aa84f;stroke-width:2;stroke-linecap:butt;stroke-linejoin:round;stroke-miterlimit:10;stroke-dasharray:8, 6;stroke-dashoffset:0"
     inkscape:connector-curvature="0"
     id="path33"
     d="m 976.42325,210.21791 125.57205,0 0,105.18674 -125.57205,0 z" />
  <path
     style="fill:#b6d7a8;fill-rule:evenodd"
     inkscape:connector-curvature="0"
     id="path39"
     d="m 43.561606,210.35627 909.295354,0 0,104.05203 -909.295354,0 z" />
  <path
     style="fill-rule:evenodd;stroke:#6aa84f;stroke-width:1;stroke-linecap:butt;stroke-linejoin:round;stroke-miterlimit:10;stroke-dasharray:none"
     inkscape:connector-curvature="0"
     id="path41"
     d="m 43.561606,210.35627 909.295354,0 0,104.05203 -909.295354,0 z" />
  <path
     style="fill:#d9d2e9;fill-rule:evenodd"
     inkscape:connector-curvature="0"
     id="path45"
     d="m 43.608381,397.40305 322.556109,0 0,133.13028 -322.556109,0 z" />
  <path
     style="fill-rule:evenodd;stroke:#9900ff;stroke-width:1;stroke-linecap:butt;stroke-linejoin:round;stroke-miterlimit:10;stroke-dasharray:none"
     inkscape:connector-curvature="0"
     id="path47"
     d="m 43.608381,397.40305 322.556109,0 0,133.13028 -322.556109,0 z" />
  <path
     style="fill:#8e7cc3;fill-rule:evenodd"
     inkscape:connector-curvature="0"
     id="path69"
     d="m 158.10823,434.60313 89.27291,0 0,67.00632 -89.27291,0 z" />
  <path
     style="fill-rule:evenodd;stroke:#674ea7;stroke-width:1;stroke-linecap:butt;stroke-linejoin:round;stroke-miterlimit:10;stroke-dasharray:none"
     inkscape:connector-curvature="0"
     id="path71"
     d="m 158.10823,434.60313 89.27291,0 0,67.00632 -89.27291,0 z" />
  <path
     style="fill:#000000;fill-rule:nonzero"
     inkscape:connector-curvature="0"
     id="path73"
     d="m 186.71686,465.0263 5.23437,-13.59375 1.9375,0 5.5625,13.59375 -2.04687,0 -1.59375,-4.125 -5.6875,0 -1.48438,4.125 -1.92187,0 z m 3.92187,-5.57813 4.60938,0 -1.40625,-3.78125 q -0.65625,-1.70312 -0.96875,-2.8125 -0.26563,1.3125 -0.73438,2.59375 l -1.5,4 z m 10.2717,5.57813 0,-1.90625 1.90625,0 0,1.90625 -1.90625,0 z m 14.63643,-4.76563 1.79688,0.45313 q -0.5625,2.21875 -2.03125,3.39062 -1.46875,1.15625 -3.59375,1.15625 -2.20313,0 -3.57813,-0.89062 -1.375,-0.90625 -2.09375,-2.59375 -0.71875,-1.70313 -0.71875,-3.65625 0,-2.125 0.79688,-3.70313 0.8125,-1.57812 2.3125,-2.39062 1.5,-0.82813 3.29687,-0.82813 2.04688,0 3.4375,1.04688 1.39063,1.03125 1.9375,2.90625 l -1.76562,0.42187 q -0.46875,-1.48437 -1.375,-2.15625 -0.90625,-0.6875 -2.26563,-0.6875 -1.5625,0 -2.625,0.75 -1.04687,0.75 -1.48437,2.03125 -0.42188,1.26563 -0.42188,2.60938 0,1.73437 0.5,3.03125 0.51563,1.28125 1.57813,1.92187 1.07812,0.64063 2.3125,0.64063 1.51562,0 2.5625,-0.85938 1.04687,-0.875 1.42187,-2.59375 z m 4.01982,4.76563 0,-1.90625 1.90625,0 0,1.90625 -1.90625,0 z" />
  <path
     style="fill:#000000;fill-opacity:0;fill-rule:evenodd"
     inkscape:connector-curvature="0"
     id="path75"
     d="m 174.30699,468.1063 -43.1496,0 0,64.40942" />
  <path
     style="fill:#c9daf8;fill-rule:evenodd"
     inkscape:connector-curvature="0"
     id="path81"
     d="m 394.80697,397.71012 322.55609,0 0,133.13028 -322.5561,0 z" />
  <path
     style="fill-rule:evenodd;stroke:#4a86e8;stroke-width:1;stroke-linecap:butt;stroke-linejoin:round;stroke-miterlimit:10;stroke-dasharray:none"
     inkscape:connector-curvature="0"
     id="path83"
     d="m 394.80697,397.71012 322.55609,0 0,133.13028 -322.5561,0 z" />
  <path
     style="fill:#000000;fill-rule:nonzero"
     inkscape:connector-curvature="0"
     id="path87"
     d="m 408.70079,454.5421 -1.51563,0 q -1.1875,-1.8125 -1.8125,-3.75 -0.625,-1.95313 -0.625,-3.78125 0,-2.25 0.76563,-4.26563 0.67187,-1.75 1.70312,-3.23437 l 1.5,0 q -1.0625,2.375 -1.46875,4.03125 -0.40625,1.65625 -0.40625,3.51562 0,1.28125 0.23438,2.625 0.25,1.34375 0.65625,2.5625 0.28125,0.79688 0.96875,2.29688 z m 1.70312,-3.375 0,-11.45313 8.48438,0 0,1.9375 -6.17188,0 0,2.53125 5.75,0 0,1.9375 -5.75,0 0,3.10938 6.39063,0 0,1.9375 -8.70313,0 z m 10.67188,0 0,-11.45313 3.70312,0 q 2.10938,0 2.75,0.17188 0.98438,0.25 1.64063,1.125 0.67187,0.85937 0.67187,2.21875 0,1.0625 -0.39062,1.78125 -0.375,0.71875 -0.96875,1.125 -0.57813,0.40625 -1.1875,0.54687 -0.82813,0.15625 -2.40625,0.15625 l -1.5,0 0,4.32813 -2.3125,0 z m 2.3125,-9.51563 0,3.25 1.26562,0 q 1.35938,0 1.8125,-0.17187 0.46875,-0.1875 0.73438,-0.5625 0.26562,-0.39063 0.26562,-0.90625 0,-0.625 -0.375,-1.03125 -0.35937,-0.40625 -0.92187,-0.5 -0.42188,-0.0781 -1.67188,-0.0781 l -1.10937,0 z m 8.42187,9.51563 0,-11.35938 2.3125,0 0,9.42188 5.75,0 0,1.9375 -8.0625,0 z m 9.08594,3.375 q 0.64063,-1.39063 0.90625,-2.14063 0.26563,-0.73437 0.48438,-1.70312 0.23437,-0.98438 0.34375,-1.84375 0.10937,-0.875 0.10937,-1.79688 0,-1.85937 -0.40625,-3.51562 -0.39062,-1.65625 -1.45312,-4.03125 l 1.48437,0 q 1.1875,1.6875 1.82813,3.57812 0.65625,1.875 0.65625,3.8125 0,1.625 -0.51563,3.5 -0.57812,2.09375 -1.92187,4.14063 l -1.51563,0 z" />
  <path
     style="fill:#4a86e8;fill-rule:evenodd"
     inkscape:connector-curvature="0"
     id="path101"
     d="m 511.66268,434.80707 101.3858,0 0,67.21265 -101.3858,0 z" />
  <path
     style="fill-rule:evenodd;stroke:#0b5394;stroke-width:1;stroke-linecap:butt;stroke-linejoin:round"
     inkscape:connector-curvature="0"
     id="path103"
     d="m 511.66268,434.80707 101.3858,0 0,67.21265 -101.3858,0 z" />
  <path
     style="fill:#000000;fill-rule:nonzero"
     inkscape:connector-curvature="0"
     id="path105"
     d="m 544.18273,464.3334 5.23437,-13.59375 1.9375,0 5.5625,13.59375 -2.04687,0 -1.59375,-4.125 -5.6875,0 -1.48438,4.125 -1.92187,0 z m 3.92187,-5.57813 4.60938,0 -1.40625,-3.78125 q -0.65625,-1.70312 -0.96875,-2.8125 -0.26563,1.3125 -0.73438,2.59375 l -1.5,4 z m 10.27174,5.57813 0,-1.90625 1.90625,0 0,1.90625 -1.90625,0 z m 14.63642,-4.76563 1.79687,0.45313 q -0.5625,2.21875 -2.03125,3.39062 -1.46875,1.15625 -3.59375,1.15625 -2.20312,0 -3.57812,-0.89062 -1.375,-0.90625 -2.09375,-2.59375 -0.71875,-1.70313 -0.71875,-3.65625 0,-2.125 0.79687,-3.70313 0.8125,-1.57812 2.3125,-2.39062 1.5,-0.82813 3.29688,-0.82813 2.04687,0 3.4375,1.04688 1.39062,1.03125 1.9375,2.90625 l -1.76563,0.42187 q -0.46875,-1.48437 -1.375,-2.15625 -0.90625,-0.6875 -2.26562,-0.6875 -1.5625,0 -2.625,0.75 -1.04688,0.75 -1.48438,2.03125 -0.42187,1.26563 -0.42187,2.60938 0,1.73437 0.5,3.03125 0.51562,1.28125 1.57812,1.92187 1.07813,0.64063 2.3125,0.64063 1.51563,0 2.5625,-0.85938 1.04688,-0.875 1.42188,-2.59375 z m 4.01983,4.76563 0,-1.90625 1.90625,0 0,1.90625 -1.90625,0 z" />
  <path
     style="fill:#000000;fill-rule:nonzero"
     inkscape:connector-curvature="0"
     id="path107"
     d="m 528.9568,490.3334 q -1.375,-1.75 -2.32813,-4.07813 -0.95312,-2.34375 -0.95312,-4.84375 0,-2.21875 0.70312,-4.23437 0.84375,-2.34375 2.57813,-4.67188 l 1.20312,0 q -1.125,1.92188 -1.48437,2.75 -0.5625,1.28125 -0.89063,2.67188 -0.40625,1.73437 -0.40625,3.48437 0,4.46875 2.78125,8.92188 l -1.20312,0 z m 1.7439,-4 5.23437,-13.59375 1.9375,0 5.5625,13.59375 -2.04687,0 -1.59375,-4.125 -5.6875,0 -1.48438,4.125 -1.92187,0 z m 3.92187,-5.57813 4.60938,0 -1.40625,-3.78125 q -0.65625,-1.70312 -0.96875,-2.8125 -0.26563,1.3125 -0.73438,2.59375 l -1.5,4 z m 19.72486,0.8125 1.79687,0.45313 q -0.5625,2.21875 -2.03125,3.39062 -1.46875,1.15625 -3.59375,1.15625 -2.20312,0 -3.57812,-0.89062 -1.375,-0.90625 -2.09375,-2.59375 -0.71875,-1.70313 -0.71875,-3.65625 0,-2.125 0.79687,-3.70313 0.8125,-1.57812 2.3125,-2.39062 1.5,-0.82813 3.29688,-0.82813 2.04687,0 3.4375,1.04688 1.39062,1.03125 1.9375,2.90625 l -1.76563,0.42187 q -0.46875,-1.48437 -1.375,-2.15625 -0.90625,-0.6875 -2.26562,-0.6875 -1.5625,0 -2.625,0.75 -1.04688,0.75 -1.48438,2.03125 -0.42187,1.26563 -0.42187,2.60938 0,1.73437 0.5,3.03125 0.51562,1.28125 1.57812,1.92187 1.07813,0.64063 2.3125,0.64063 1.51563,0 2.5625,-0.85938 1.04688,-0.875 1.42188,-2.59375 z m 3.1604,0.39063 1.6875,-0.14063 q 0.125,1.01563 0.5625,1.67188 0.4375,0.65625 1.35937,1.0625 0.9375,0.40625 2.09375,0.40625 1.03125,0 1.8125,-0.3125 0.79688,-0.3125 1.1875,-0.84375 0.39063,-0.53125 0.39063,-1.15625 0,-0.64063 -0.375,-1.10938 -0.375,-0.48437 -1.23438,-0.8125 -0.54687,-0.21875 -2.42187,-0.65625 -1.875,-0.45312 -2.625,-0.85937 -0.96875,-0.51563 -1.45313,-1.26563 -0.46875,-0.75 -0.46875,-1.6875 0,-1.03125 0.57813,-1.92187 0.59375,-0.90625 1.70312,-1.35938 1.125,-0.46875 2.5,-0.46875 1.51563,0 2.67188,0.48438 1.15625,0.48437 1.76562,1.4375 0.625,0.9375 0.67188,2.14062 l -1.71875,0.125 q -0.14063,-1.28125 -0.95313,-1.9375 -0.79687,-0.67187 -2.35937,-0.67187 -1.625,0 -2.375,0.60937 -0.75,0.59375 -0.75,1.4375 0,0.73438 0.53125,1.20313 0.51562,0.46875 2.70312,0.96875 2.20313,0.5 3.01563,0.875 1.1875,0.54687 1.75,1.39062 0.57812,0.82813 0.57812,1.92188 0,1.09375 -0.625,2.0625 -0.625,0.95312 -1.79687,1.48437 -1.15625,0.53125 -2.60938,0.53125 -1.84375,0 -3.09375,-0.53125 -1.25,-0.54687 -1.96875,-1.625 -0.70312,-1.07812 -0.73437,-2.45312 z m 13.08422,4.375 0,-13.59375 9.84375,0 0,1.59375 -8.04687,0 0,4.17187 7.53125,0 0,1.59375 -7.53125,0 0,4.625 8.35937,0 0,1.60938 -10.15625,0 z m 12.4123,0 0,-13.59375 5.125,0 q 1.35937,0 2.07812,0.125 1,0.17187 1.67188,0.64062 0.67187,0.46875 1.07812,1.3125 0.42188,0.84375 0.42188,1.84375 0,1.73438 -1.10938,2.9375 -1.09375,1.20313 -3.98437,1.20313 l -3.48438,0 0,5.53125 -1.79687,0 z m 1.79687,-7.14063 3.51563,0 q 1.75,0 2.46875,-0.64062 0.73437,-0.65625 0.73437,-1.82813 0,-0.85937 -0.4375,-1.46875 -0.42187,-0.60937 -1.125,-0.79687 -0.45312,-0.125 -1.67187,-0.125 l -3.48438,0 0,4.85937 z m 11.52173,11.14063 -1.1875,0 q 2.76563,-4.45313 2.76563,-8.92188 0,-1.73437 -0.39063,-3.45312 -0.32812,-1.39063 -0.89062,-2.67188 -0.35938,-0.84375 -1.48438,-2.78125 l 1.1875,0 q 1.75,2.32813 2.57813,4.67188 0.71875,2.01562 0.71875,4.23437 0,2.5 -0.96875,4.84375 -0.95313,2.32813 -2.32813,4.07813 z" />
  <path
     style="fill:#000000;fill-opacity:0;fill-rule:evenodd"
     inkscape:connector-curvature="0"
     id="path109"
     d="m 511.66268,468.4134 -23.02362,0 0,64.40942" />
  <path
     style="fill:#000000;fill-opacity:0;fill-rule:evenodd"
     inkscape:connector-curvature="0"
     id="path115"
     d="m 613.04848,468.4134 24.62994,0 0,64.40942" />
  <path
     style="fill:#fce5cd;fill-rule:evenodd"
     inkscape:connector-curvature="0"
     id="path121"
     d="m 43.71321,0.5 1058.01589,0 0,86.99213 -1058.01589,0 z" />
  <path
     style="fill-rule:evenodd;stroke:#ff9900;stroke-width:1;stroke-linecap:butt;stroke-linejoin:round"
     inkscape:connector-curvature="0"
     id="path123"
     d="m 43.71321,0.5 1058.01589,0 0,86.99213 -1058.01589,0 z" />
  <path
     style="fill:#f4cccc;fill-rule:evenodd"
     inkscape:connector-curvature="0"
     id="path145"
     d="m 81.390375,60.38977 275.307105,0 0,113.51181 -275.307105,0 z" />
  <path
     style="fill-rule:evenodd;stroke:#990000;stroke-width:1;stroke-linecap:butt;stroke-linejoin:round"
     inkscape:connector-curvature="0"
     id="path147"
     d="m 81.390375,60.38977 275.307105,0 0,113.51181 -275.307105,0 z" />
  <path
     style="fill:#000000;fill-opacity:0;fill-rule:evenodd"
     inkscape:connector-curvature="0"
     id="path151"
     d="m 488.70534,397.5 c 0,-21.25195 -16.49606,-31.87793 -32.99213,-42.50397 -16.49606,-10.62597 -32.99212,-21.25195 -32.99212,-42.5039" />
  <path
     style="fill:#000000;fill-opacity:0;fill-rule:evenodd"
     inkscape:connector-curvature="0"
     id="path157"
     d="m 365.70534,398.5 c 43.50394,0 65.25592,-21.50397 87.00787,-43.00787 21.75198,-21.50397 43.50394,-43.00788 87.00787,-43.00788" />
  <path
     style="fill:#000000;fill-opacity:0;fill-rule:evenodd"
     inkscape:connector-curvature="0"
     id="path163"
     d="m 153.70534,399.5 1.00787,-86.01575" />
  <g
     id="g4576"
     transform="matrix(1.0079842,0,0,0.96879018,33.349779,-99.14956)">
    <path
       d="m 169,512 0.88742,-75.7352"
       id="path165"
       inkscape:connector-curvature="0"
       style="fill-rule:evenodd;stroke:#9900ff;stroke-width:3;stroke-linecap:butt;stroke-linejoin:round" />
    <path
       d="m 169.88742,436.2648 3.33398,3.41306 -3.26492,-9.3082 -3.48212,9.22912 z"
       id="path167"
       inkscape:connector-curvature="0"
       style="fill:#9900ff;fill-rule:evenodd;stroke:#9900ff;stroke-width:3;stroke-linecap:butt" />
  </g>
  <path
     style="fill:#000000;fill-opacity:0;fill-rule:evenodd"
     inkscape:connector-curvature="0"
     id="path169"
     d="m 621.70533,398.5 0,-85.00787" />
  <g
     id="g4572"
     transform="translate(-75.294664,-112.5)">
    <path
       d="m 637,511 0,-74.72662"
       id="path171"
       inkscape:connector-curvature="0"
       style="fill-rule:evenodd;stroke:#4a86e8;stroke-width:3;stroke-linecap:butt;stroke-linejoin:round" />
    <path
       d="m 637,436.27338 3.37378,3.37375 -3.37378,-9.26929 -3.37378,9.26929 z"
       id="path173"
       inkscape:connector-curvature="0"
       style="fill:#4a86e8;fill-rule:evenodd;stroke:#4a86e8;stroke-width:3;stroke-linecap:butt" />
  </g>
  <path
     style="fill:#000000;fill-opacity:0;fill-rule:evenodd"
     inkscape:connector-curvature="0"
     id="path175"
     d="m 283.29527,335.5 c 0,-30.34647 21.7638,-60.6929 43.52756,-60.6929" />
  <path
     style="fill:#000000;fill-opacity:0;fill-rule:evenodd"
     inkscape:connector-curvature="0"
     id="path181"
     d="m 283.29527,335.5 c 0,-40.39996 -16.06299,-60.59912 -32.12597,-80.79993 -16.06298,-20.20078 -32.12597,-40.40317 -32.12597,-80.80637" />
  <path
     style="fill:#000000;fill-opacity:0;fill-rule:evenodd"
     inkscape:connector-curvature="0"
     id="path187"
     d="m 43.705336,570.00397 -25.000145,0 0,-452.8504 62.700934,0" />
  <path
     style="fill-rule:evenodd;stroke:#9900ff;stroke-width:3;stroke-linecap:butt;stroke-linejoin:round;stroke-miterlimit:10;stroke-dasharray:none"
     inkscape:connector-curvature="0"
     id="path189"
     d="m 43.703049,464.70149 -25.124521,0 0,-347.77871 52.680459,0" />
  <path
     style="fill:#9900ff;fill-rule:evenodd;stroke:#9900ff;stroke-width:3;stroke-linecap:butt"
     inkscape:connector-curvature="0"
     id="path191"
     d="m 71.124861,117.15355 -3.373749,3.37375 9.269302,-3.37375 -9.269302,-3.37376 z" />
  <path
     style="fill-rule:evenodd;stroke:#4a86e8;stroke-width:3;stroke-linecap:butt;stroke-linejoin:round;stroke-miterlimit:10;stroke-dasharray:none"
     inkscape:connector-curvature="0"
     id="path195"
     d="m 556.29107,530.13971 0,18.5892 -554.79107,0 0,-431.77351 69.440678,0" />
  <path
     style="fill:#4a86e8;fill-rule:evenodd;stroke:#4a86e8;stroke-width:3;stroke-linecap:butt"
     inkscape:connector-curvature="0"
     id="path197"
     d="m 71.095091,117.16142 -3.373749,3.37375 9.269302,-3.37375 -9.269302,-3.37375 z" />
  <path
     style="fill:#000000;fill-opacity:0;fill-rule:evenodd"
     inkscape:connector-curvature="0"
     id="path199"
     d="m 219.04392,60.38977 c 0,-8.69292 93.79527,-17.38583 187.59056,-17.38583" />
  <path
     style="fill-rule:evenodd;stroke:#cc0000;stroke-width:3;stroke-linecap:butt;stroke-linejoin:round"
     inkscape:connector-curvature="0"
     id="path201"
     d="m 219.04392,60.38977 c 0,-4.34647 23.44884,-8.69292 58.62205,-11.95276 17.5866,-1.62993 38.10433,-2.98819 60.08758,-3.93898 10.99165,-0.47539 22.34967,-0.84892 33.89087,-1.10359 5.77063,-0.12734 11.58705,-0.22496 17.42634,-0.29076 1.45983,-0.0164 2.92108,-0.0309 4.38342,-0.0433 l 2.89908,-0.0206" />
  <path
     style="fill:#cc0000;fill-rule:evenodd;stroke:#cc0000;stroke-width:3;stroke-linecap:butt"
     inkscape:connector-curvature="0"
     id="path203"
     d="m 396.35329,43.03973 -3.36201,3.38548 9.25752,-3.406 -9.28101,-3.34146 z" />
  <path
     style="fill:#f3f3f3;fill-rule:evenodd"
     inkscape:connector-curvature="0"
     id="path271"
     d="m 836.14887,66.5 246.99213,0 0,113.51181 -246.99213,0 z" />
  <path
     style="fill-rule:evenodd;stroke:#990000;stroke-width:2;stroke-linecap:butt;stroke-linejoin:round;stroke-dasharray:8, 6"
     inkscape:connector-curvature="0"
     id="path273"
     d="m 836.14887,66.5 246.99213,0 0,113.51181 -246.99213,0 z" />
  <path
     style="fill:#000000;fill-opacity:0;fill-rule:evenodd"
     inkscape:connector-curvature="0"
     id="path285"
     d="m 454.70554,358.4871 c 15.33859,0 23.00787,3.21259 30.67716,6.4252 7.66931,3.21259 15.33862,6.4252 30.67718,6.4252" />
  <path
     style="fill:#000000;fill-rule:nonzero"
     inkscape:connector-curvature="0"
     id="path107-3"
     d="m 176.48921,490.50146 q -1.375,-1.75 -2.32812,-4.07813 -0.95313,-2.34375 -0.95313,-4.84375 0,-2.21875 0.70313,-4.23437 0.84375,-2.34375 2.57812,-4.67188 l 1.20313,0 q -1.125,1.92188 -1.48438,2.75 -0.5625,1.28125 -0.89062,2.67188 -0.40625,1.73437 -0.40625,3.48437 0,4.46875 2.78125,8.92188 l -1.20313,0 z m 1.7439,-4 5.23437,-13.59375 1.9375,0 5.5625,13.59375 -2.04687,0 -1.59375,-4.125 -5.6875,0 -1.48438,4.125 -1.92187,0 z m 3.92187,-5.57813 4.60938,0 -1.40625,-3.78125 q -0.65625,-1.70312 -0.96875,-2.8125 -0.26563,1.3125 -0.73438,2.59375 l -1.5,4 z m 9.41236,1.20313 1.6875,-0.14063 q 0.125,1.01563 0.5625,1.67188 0.4375,0.65625 1.35937,1.0625 0.9375,0.40625 2.09375,0.40625 1.03125,0 1.8125,-0.3125 0.79688,-0.3125 1.1875,-0.84375 0.39063,-0.53125 0.39063,-1.15625 0,-0.64063 -0.375,-1.10938 -0.375,-0.48437 -1.23438,-0.8125 -0.54687,-0.21875 -2.42187,-0.65625 -1.875,-0.45312 -2.625,-0.85937 -0.96875,-0.51563 -1.45313,-1.26563 -0.46875,-0.75 -0.46875,-1.6875 0,-1.03125 0.57813,-1.92187 0.59375,-0.90625 1.70312,-1.35938 1.125,-0.46875 2.5,-0.46875 1.51563,0 2.67188,0.48438 1.15625,0.48437 1.76562,1.4375 0.625,0.9375 0.67188,2.14062 l -1.71875,0.125 q -0.14063,-1.28125 -0.95313,-1.9375 -0.79687,-0.67187 -2.35937,-0.67187 -1.625,0 -2.375,0.60937 -0.75,0.59375 -0.75,1.4375 0,0.73438 0.53125,1.20313 0.51562,0.46875 2.70312,0.96875 2.20313,0.5 3.01563,0.875 1.1875,0.54687 1.75,1.39062 0.57812,0.82813 0.57812,1.92188 0,1.09375 -0.625,2.0625 -0.625,0.95312 -1.79687,1.48437 -1.15625,0.53125 -2.60938,0.53125 -1.84375,0 -3.09375,-0.53125 -1.25,-0.54687 -1.96875,-1.625 -0.70312,-1.07812 -0.73437,-2.45312 z m 22.75604,-0.39063 1.79687,0.45313 q -0.5625,2.21875 -2.03125,3.39062 -1.46875,1.15625 -3.59375,1.15625 -2.20312,0 -3.57812,-0.89062 -1.375,-0.90625 -2.09375,-2.59375 -0.71875,-1.70313 -0.71875,-3.65625 0,-2.125 0.79687,-3.70313 0.8125,-1.57812 2.3125,-2.39062 1.5,-0.82813 3.29688,-0.82813 2.04687,0 3.4375,1.04688 1.39062,1.03125 1.9375,2.90625 l -1.76563,0.42187 q -0.46875,-1.48437 -1.375,-2.15625 -0.90625,-0.6875 -2.26562,-0.6875 -1.5625,0 -2.625,0.75 -1.04688,0.75 -1.48438,2.03125 -0.42187,1.26563 -0.42187,2.60938 0,1.73437 0.5,3.03125 0.51562,1.28125 1.57812,1.92187 1.07813,0.64063 2.3125,0.64063 1.51563,0 2.5625,-0.85938 1.04688,-0.875 1.42188,-2.59375 z m 4.06671,4.76563 0,-13.59375 1.8125,0 0,13.59375 -1.8125,0 z m 5.18329,0 0,-13.59375 1.8125,0 0,13.59375 -1.8125,0 z m 5.76147,4 -1.1875,0 q 2.76563,-4.45313 2.76563,-8.92188 0,-1.73437 -0.39063,-3.45312 -0.32812,-1.39063 -0.89062,-2.67188 -0.35938,-0.84375 -1.48438,-2.78125 l 1.1875,0 q 1.75,2.32813 2.57813,4.67188 0.71875,2.01562 0.71875,4.23437 0,2.5 -0.96875,4.84375 -0.95313,2.32813 -2.32813,4.07813 z" />
  <path
     style="fill:#000000;fill-rule:nonzero"
     inkscape:connector-curvature="0"
     id="path51-6"
     d="m 57.319489,455.28573 -1.51562,0 q -1.1875,-1.8125 -1.8125,-3.75 -0.625,-1.95312 -0.625,-3.78125 0,-2.25 0.76562,-4.26562 0.67188,-1.75 1.70313,-3.23438 l 1.5,0 q -1.0625,2.375 -1.46875,4.03125 -0.40625,1.65625 -0.40625,3.51563 0,1.28125 0.23437,2.625 0.25,1.34375 0.65625,2.5625 0.28125,0.79687 0.96875,2.29687 z m 1.625,-3.375 0,-11.45312 2.3125,0 0,11.45312 -2.3125,0 z m 11.85156,-4.21875 2.23438,0.71875 q -0.51563,1.875 -1.71875,2.79688 -1.1875,0.90625 -3.03125,0.90625 -2.28125,0 -3.75,-1.5625 -1.46875,-1.5625 -1.46875,-4.26563 0,-2.85937 1.46875,-4.4375 1.48437,-1.59375 3.89062,-1.59375 2.09375,0 3.40625,1.25 0.78125,0.73438 1.17188,2.10938 l -2.28125,0.54687 q -0.20313,-0.89062 -0.85938,-1.40625 -0.64062,-0.51562 -1.5625,-0.51562 -1.26562,0 -2.0625,0.92187 -0.79687,0.90625 -0.79687,2.95313 0,2.17187 0.78125,3.09375 0.78125,0.92187 2.03125,0.92187 0.92187,0 1.57812,-0.57812 0.67188,-0.59375 0.96875,-1.85938 z m 6.804686,4.21875 0,-9.51562 -3.406246,0 0,-1.9375 9.109376,0 0,1.9375 -3.39063,0 0,9.51562 -2.3125,0 z m 7.19532,0 0,-11.45312 8.48437,0 0,1.9375 -6.17187,0 0,2.53125 5.75,0 0,1.9375 -5.75,0 0,3.10937 6.39062,0 0,1.9375 -8.70312,0 z m 21.000005,0 -2.51563,0 -1,-2.60937 -4.578125,0 -0.95313,2.60937 -2.45312,0 4.46875,-11.45312 2.437505,0 4.59375,11.45312 z m -4.26563,-4.53125 -1.578125,-4.25 -1.54688,4.25 3.125005,0 z m 5.46094,4.53125 0,-11.45312 3.45313,0 2.07812,7.8125 2.0625,-7.8125 3.46875,0 0,11.45312 -2.15625,0 0,-9.01562 -2.26563,9.01562 -2.23437,0 -2.26562,-9.01562 0,9.01562 -2.14063,0 z m 12.73437,3.375 q 0.64063,-1.39062 0.90625,-2.14062 0.26563,-0.73438 0.48438,-1.70313 0.23437,-0.98437 0.34375,-1.84375 0.10937,-0.875 0.10937,-1.79687 0,-1.85938 -0.40625,-3.51563 -0.39062,-1.65625 -1.45312,-4.03125 l 1.48437,0 q 1.1875,1.6875 1.82813,3.57813 0.65625,1.875 0.65625,3.8125 0,1.625 -0.51563,3.5 -0.57812,2.09375 -1.92187,4.14062 l -1.51563,0 z" />
  <path
     style="fill:#000000;fill-rule:nonzero"
     inkscape:connector-curvature="0"
     id="path125-7"
     d="m 435.3143,35.25234 3.46875,0 0,9.3125 q 0,2.21875 0.14062,2.875 0.21875,1.04687 1.04688,1.6875 0.84375,0.64062 2.29687,0.64062 1.48438,0 2.23438,-0.59375 0.75,-0.60937 0.89062,-1.48437 0.15625,-0.89063 0.15625,-2.92188 l 0,-9.51562 3.46875,0 0,9.03125 q 0,3.09375 -0.28125,4.375 -0.28125,1.26562 -1.04687,2.15625 -0.75,0.875 -2.01563,1.40625 -1.26562,0.51562 -3.29687,0.51562 -2.46875,0 -3.73438,-0.5625 -1.26562,-0.57812 -2.01562,-1.48437 -0.73438,-0.90625 -0.96875,-1.90625 -0.34375,-1.48438 -0.34375,-4.35938 l 0,-9.17187 z m 28.34766,10.875 3.375,1.0625 q -0.78125,2.8125 -2.57813,4.1875 -1.79687,1.35937 -4.5625,1.35937 -3.42187,0 -5.625,-2.34375 -2.20312,-2.34375 -2.20312,-6.39062 0,-4.29688 2.20312,-6.65625 2.21875,-2.375 5.82813,-2.375 3.15625,0 5.125,1.85937 1.17187,1.09375 1.76562,3.15625 l -3.4375,0.82813 q -0.3125,-1.34375 -1.28125,-2.10938 -0.95312,-0.78125 -2.34375,-0.78125 -1.90625,0 -3.09375,1.375 -1.1875,1.375 -1.1875,4.4375 0,3.26563 1.17188,4.65625 1.17187,1.375 3.04687,1.375 1.375,0 2.375,-0.875 1,-0.89062 1.42188,-2.76562 z m 6.4414,6.3125 0,-17.04688 3.46875,0 0,14.15625 8.625,0 0,2.89063 -12.09375,0 z m 26.67188,5.04687 -2.26563,0 q -1.79687,-2.70312 -2.73437,-5.625 -0.9375,-2.92187 -0.9375,-5.64062 0,-3.39063 1.17187,-6.42188 1,-2.625 2.54688,-4.82812 l 2.25,0 q -1.60938,3.54687 -2.21875,6.04687 -0.59375,2.48438 -0.59375,5.26563 0,1.92187 0.35937,3.9375 0.35938,2.01562 0.98438,3.84375 0.40625,1.1875 1.4375,3.42187 z m 18.03906,-5.04687 -3.76563,0 -1.5,-3.90625 -6.875,0 -1.40625,3.90625 -3.6875,0 6.6875,-17.1875 3.67188,0 6.875,17.1875 z m -6.375,-6.79688 -2.375,-6.375 -2.3125,6.375 4.6875,0 z m 19.05078,-1.96875 -3.25,0.57813 q -0.15625,-0.96875 -0.75,-1.45313 -0.57812,-0.5 -1.5,-0.5 -1.23437,0 -1.96875,0.85938 -0.71875,0.84375 -0.71875,2.82812 0,2.21875 0.73438,3.14063 0.75,0.90625 2,0.90625 0.9375,0 1.53125,-0.53125 0.60937,-0.53125 0.84375,-1.82813 l 3.23437,0.54688 q -0.5,2.21875 -1.9375,3.35937 -1.42187,1.14063 -3.82812,1.14063 -2.71875,0 -4.34375,-1.71875 -1.625,-1.73438 -1.625,-4.78125 0,-3.07813 1.625,-4.79688 1.625,-1.71875 4.40625,-1.71875 2.28125,0 3.60937,0.98438 1.34375,0.98437 1.9375,2.98437 z m 4.95703,0.10938 -2.98437,-0.53125 q 0.5,-1.8125 1.71875,-2.67188 1.23437,-0.875 3.67187,-0.875 2.20313,0 3.28125,0.53125 1.07813,0.51563 1.51563,1.32813 0.4375,0.79687 0.4375,2.9375 l -0.0312,3.84375 q 0,1.64062 0.15625,2.42187 0.15625,0.78125 0.59375,1.67188 l -3.26563,0 q -0.125,-0.32813 -0.3125,-0.96875 -0.0781,-0.29688 -0.125,-0.39063 -0.84375,0.8125 -1.8125,1.23438 -0.95312,0.40625 -2.03125,0.40625 -1.92187,0 -3.03125,-1.04688 -1.10937,-1.04687 -1.10937,-2.64062 0,-1.04688 0.5,-1.875 0.5,-0.82813 1.40625,-1.26563 0.92187,-0.4375 2.625,-0.76562 2.3125,-0.4375 3.20312,-0.8125 l 0,-0.32813 q 0,-0.95312 -0.46875,-1.34375 -0.46875,-0.40625 -1.76562,-0.40625 -0.89063,0 -1.39063,0.34375 -0.48437,0.34375 -0.78125,1.20313 z m 4.40625,2.67187 q -0.64062,0.21875 -2.01562,0.51563 -1.35938,0.28125 -1.78125,0.5625 -0.64063,0.46875 -0.64063,1.17187 0,0.6875 0.51563,1.1875 0.51562,0.5 1.3125,0.5 0.89062,0 1.6875,-0.57812 0.60937,-0.45313 0.79687,-1.09375 0.125,-0.42188 0.125,-1.60938 l 0,-0.65625 z m 17.89453,5.98438 -3.0625,0 0,-1.82813 q -0.76562,1.0625 -1.79687,1.59375 -1.03125,0.51563 -2.09375,0.51563 -2.14063,0 -3.67188,-1.71875 -1.53125,-1.73438 -1.53125,-4.82813 0,-3.17187 1.48438,-4.8125 1.5,-1.65625 3.76562,-1.65625 2.09375,0 3.60938,1.73438 l 0,-6.1875 3.29687,0 0,17.1875 z m -8.79687,-6.5 q 0,2 0.5625,2.89062 0.79687,1.28125 2.21875,1.28125 1.14062,0 1.9375,-0.95312 0.79687,-0.96875 0.79687,-2.89063 0,-2.15625 -0.78125,-3.09375 -0.76562,-0.9375 -1.96875,-0.9375 -1.17187,0 -1.96875,0.9375 -0.79687,0.92188 -0.79687,2.76563 z m 19.2539,2.53125 3.28125,0.5625 q -0.64062,1.79687 -2.01562,2.75 -1.35938,0.9375 -3.40625,0.9375 -3.25,0 -4.79688,-2.125 -1.23437,-1.70313 -1.23437,-4.28125 0,-3.09375 1.60937,-4.84375 1.625,-1.76563 4.09375,-1.76563 2.78125,0 4.375,1.84375 1.60938,1.82813 1.54688,5.60938 l -8.25,0 q 0.0312,1.46875 0.79687,2.28125 0.76563,0.8125 1.89063,0.8125 0.78125,0 1.29687,-0.42188 0.53125,-0.42187 0.8125,-1.35937 z m 0.1875,-3.32813 q -0.0469,-1.42187 -0.75,-2.15625 -0.70312,-0.75 -1.70312,-0.75 -1.07813,0 -1.78125,0.78125 -0.70313,0.78125 -0.6875,2.125 l 4.92187,0 z m 5.70703,-5.15625 3.03125,0 0,1.70313 q 1.625,-1.98438 3.875,-1.98438 1.20313,0 2.07813,0.5 0.875,0.48438 1.4375,1.48438 0.82812,-1 1.76562,-1.48438 0.95313,-0.5 2.03125,-0.5 1.375,0 2.3125,0.5625 0.95313,0.5625 1.42188,1.64063 0.34375,0.79687 0.34375,2.57812 l 0,7.95313 -3.29688,0 0,-7.10938 q 0,-1.85937 -0.32812,-2.39062 -0.46875,-0.70313 -1.40625,-0.70313 -0.70313,0 -1.3125,0.42188 -0.60938,0.42187 -0.875,1.23437 -0.26563,0.8125 -0.26563,2.5625 l 0,5.98438 -3.29687,0 0,-6.82813 q 0,-1.8125 -0.17188,-2.32812 -0.17187,-0.53125 -0.54687,-0.78125 -0.375,-0.26563 -1,-0.26563 -0.76563,0 -1.375,0.40625 -0.60938,0.40625 -0.875,1.1875 -0.26563,0.76563 -0.26563,2.5625 l 0,6.04688 -3.28125,0 0,-12.45313 z m 21.57422,-1.6875 0,-3.04687 3.29688,0 0,3.04687 -3.29688,0 z m 0,14.14063 0,-12.45313 3.29688,0 0,12.45313 -3.29688,0 z m 17.52735,-8.76563 -3.25,0.57813 q -0.15625,-0.96875 -0.75,-1.45313 -0.57813,-0.5 -1.5,-0.5 -1.23438,0 -1.96875,0.85938 -0.71875,0.84375 -0.71875,2.82812 0,2.21875 0.73437,3.14063 0.75,0.90625 2,0.90625 0.9375,0 1.53125,-0.53125 0.60938,-0.53125 0.84375,-1.82813 l 3.23438,0.54688 q -0.5,2.21875 -1.9375,3.35937 -1.42188,1.14063 -3.82813,1.14063 -2.71875,0 -4.34375,-1.71875 -1.625,-1.73438 -1.625,-4.78125 0,-3.07813 1.625,-4.79688 1.625,-1.71875 4.40625,-1.71875 2.28125,0 3.60938,0.98438 1.34375,0.98437 1.9375,2.98437 z m 20.01562,0 -3.25,0.57813 q -0.15625,-0.96875 -0.75,-1.45313 -0.57812,-0.5 -1.5,-0.5 -1.23437,0 -1.96875,0.85938 -0.71875,0.84375 -0.71875,2.82812 0,2.21875 0.73438,3.14063 0.75,0.90625 2,0.90625 0.9375,0 1.53125,-0.53125 0.60937,-0.53125 0.84375,-1.82813 l 3.23437,0.54688 q -0.5,2.21875 -1.9375,3.35937 -1.42187,1.14063 -3.82812,1.14063 -2.71875,0 -4.34375,-1.71875 -1.625,-1.73438 -1.625,-4.78125 0,-3.07813 1.625,-4.79688 1.625,-1.71875 4.40625,-1.71875 2.28125,0 3.60937,0.98438 1.34375,0.98437 1.9375,2.98437 z m 1.73828,2.35938 q 0,-1.64063 0.79688,-3.17188 0.8125,-1.53125 2.29687,-2.34375 1.48438,-0.8125 3.3125,-0.8125 2.82813,0 4.625,1.84375 1.8125,1.82813 1.8125,4.625 0,2.82813 -1.82812,4.6875 -1.82813,1.85938 -4.59375,1.85938 -1.70313,0 -3.26563,-0.76563 -1.54687,-0.78125 -2.35937,-2.26562 -0.79688,-1.5 -0.79688,-3.65625 z m 3.375,0.1875 q 0,1.84375 0.875,2.82812 0.875,0.98438 2.17188,0.98438 1.28125,0 2.15625,-0.98438 0.875,-0.98437 0.875,-2.85937 0,-1.82813 -0.875,-2.8125 -0.875,-0.98438 -2.15625,-0.98438 -1.29688,0 -2.17188,0.98438 -0.875,0.98437 -0.875,2.84375 z m 20.23828,6.21875 0,-1.85938 q -0.6875,0.98438 -1.79687,1.5625 -1.10938,0.57813 -2.32813,0.57813 -1.26562,0 -2.26562,-0.54688 -0.98438,-0.5625 -1.4375,-1.54687 -0.4375,-1 -0.4375,-2.76563 l 0,-7.875 3.29687,0 0,5.71875 q 0,2.625 0.17188,3.21875 0.1875,0.59375 0.65625,0.9375 0.48437,0.34375 1.23437,0.34375 0.84375,0 1.5,-0.45312 0.67188,-0.46875 0.92188,-1.15625 0.25,-0.6875 0.25,-3.35938 l 0,-5.25 3.28125,0 0,12.45313 -3.04688,0 z m 17.78516,0 -3.29687,0 0,-6.35938 q 0,-2.01562 -0.21875,-2.59375 -0.20313,-0.59375 -0.6875,-0.92187 -0.46875,-0.32813 -1.125,-0.32813 -0.85938,0 -1.54688,0.46875 -0.67187,0.46875 -0.92187,1.25 -0.25,0.76563 -0.25,2.84375 l 0,5.64063 -3.29688,0 0,-12.45313 3.0625,0 0,1.82813 q 1.625,-2.10938 4.09375,-2.10938 1.09375,0 1.98438,0.40625 0.90625,0.39063 1.375,1 0.46875,0.60938 0.64062,1.39063 0.1875,0.76562 0.1875,2.20312 l 0,7.73438 z m 14.19141,-8.76563 -3.25,0.57813 q -0.15625,-0.96875 -0.75,-1.45313 -0.57813,-0.5 -1.5,-0.5 -1.23438,0 -1.96875,0.85938 -0.71875,0.84375 -0.71875,2.82812 0,2.21875 0.73437,3.14063 0.75,0.90625 2,0.90625 0.9375,0 1.53125,-0.53125 0.60938,-0.53125 0.84375,-1.82813 l 3.23438,0.54688 q -0.5,2.21875 -1.9375,3.35937 -1.42188,1.14063 -3.82813,1.14063 -2.71875,0 -4.34375,-1.71875 -1.625,-1.73438 -1.625,-4.78125 0,-3.07813 1.625,-4.79688 1.625,-1.71875 4.40625,-1.71875 2.28125,0 3.60938,0.98438 1.34375,0.98437 1.9375,2.98437 z m 2.48828,-5.375 0,-3.04687 3.29687,0 0,3.04687 -3.29687,0 z m 0,14.14063 0,-12.45313 3.29687,0 0,12.45313 -3.29687,0 z m 6.66797,0 0,-17.1875 3.29687,0 0,17.1875 -3.29687,0 z m 5.76172,5.04687 q 0.96875,-2.07812 1.35937,-3.20312 0.40625,-1.10938 0.75,-2.5625 0.34375,-1.45313 0.5,-2.75 0.17188,-1.3125 0.17188,-2.6875 0,-2.78125 -0.60938,-5.26563 -0.59375,-2.5 -2.20312,-6.04687 l 2.25,0 q 1.76562,2.51562 2.73437,5.34375 0.98438,2.8125 0.98438,5.71875 0,2.45312 -0.76563,5.25 -0.89062,3.15625 -2.90625,6.20312 l -2.26562,0 z" />
  <path
     style="fill:#000000;fill-rule:nonzero"
     inkscape:connector-curvature="0"
     id="path149-5"
     d="m 148.76836,119.708 3.375,1.0625 q -0.78125,2.8125 -2.57813,4.1875 -1.79687,1.35937 -4.5625,1.35937 -3.42187,0 -5.625,-2.34375 -2.20312,-2.34375 -2.20312,-6.39062 0,-4.29688 2.20312,-6.65625 2.21875,-2.375 5.82813,-2.375 3.15625,0 5.125,1.85937 1.17187,1.09375 1.76562,3.15625 l -3.4375,0.82813 q -0.3125,-1.34375 -1.28125,-2.10938 -0.95312,-0.78125 -2.34375,-0.78125 -1.90625,0 -3.09375,1.375 -1.1875,1.375 -1.1875,4.4375 0,3.26563 1.17188,4.65625 1.17187,1.375 3.04687,1.375 1.375,0 2.375,-0.875 1,-0.89062 1.42188,-2.76562 z m 5.56641,-0.0937 q 0,-1.64063 0.79687,-3.17188 0.8125,-1.53125 2.29688,-2.34375 1.48437,-0.8125 3.3125,-0.8125 2.82812,0 4.625,1.84375 1.8125,1.82813 1.8125,4.625 0,2.82813 -1.82813,4.6875 -1.82812,1.85938 -4.59375,1.85938 -1.70312,0 -3.26562,-0.76563 -1.54688,-0.78125 -2.35938,-2.26562 -0.79687,-1.5 -0.79687,-3.65625 z m 3.375,0.1875 q 0,1.84375 0.875,2.82812 0.875,0.98438 2.17187,0.98438 1.28125,0 2.15625,-0.98438 0.875,-0.98437 0.875,-2.85937 0,-1.82813 -0.875,-2.8125 -0.875,-0.98438 -2.15625,-0.98438 -1.29687,0 -2.17187,0.98438 -0.875,0.98437 -0.875,2.84375 z m 15.1914,6.21875 -3.29688,0 0,-12.45313 3.0625,0 0,1.78125 q 0.78125,-1.26562 1.40625,-1.65625 0.64063,-0.40625 1.4375,-0.40625 1.125,0 2.15625,0.625 l -1.01562,2.875 q -0.82813,-0.54687 -1.54688,-0.54687 -0.6875,0 -1.17187,0.39062 -0.48438,0.375 -0.76563,1.375 -0.26562,1 -0.26562,4.17188 l 0,3.84375 z m 5.33985,-5.59375 3.375,-0.32813 q 0.29687,1.70313 1.21875,2.5 0.9375,0.79688 2.53125,0.79688 1.67187,0 2.51562,-0.70313 0.85938,-0.71875 0.85938,-1.67187 0,-0.60938 -0.35938,-1.03125 -0.35937,-0.42188 -1.25,-0.75 -0.60937,-0.20313 -2.78125,-0.75 -2.78125,-0.6875 -3.90625,-1.6875 -1.59375,-1.42188 -1.59375,-3.46875 0,-1.3125 0.75,-2.45313 0.75,-1.14062 2.14063,-1.73437 1.40625,-0.59375 3.39062,-0.59375 3.23438,0 4.85938,1.42187 1.64062,1.40625 1.71875,3.78125 l -3.46875,0.14063 q -0.21875,-1.3125 -0.95313,-1.89063 -0.73437,-0.59375 -2.20312,-0.59375 -1.5,0 -2.35938,0.625 -0.54687,0.40625 -0.54687,1.0625 0,0.60938 0.51562,1.04688 0.65625,0.54687 3.1875,1.15625 2.53125,0.59375 3.73438,1.23437 1.21875,0.64063 1.90625,1.75 0.6875,1.09375 0.6875,2.73438 0,1.46875 -0.82813,2.76562 -0.8125,1.28125 -2.3125,1.92188 -1.5,0.625 -3.75,0.625 -3.25,0 -5,-1.5 -1.75,-1.51563 -2.07812,-4.40625 z m 27.71093,-3.17188 -3.25,0.57813 q -0.15625,-0.96875 -0.75,-1.45313 -0.57813,-0.5 -1.5,-0.5 -1.23438,0 -1.96875,0.85938 -0.71875,0.84375 -0.71875,2.82812 0,2.21875 0.73437,3.14063 0.75,0.90625 2,0.90625 0.9375,0 1.53125,-0.53125 0.60938,-0.53125 0.84375,-1.82813 l 3.23438,0.54688 q -0.5,2.21875 -1.9375,3.35937 -1.42188,1.14063 -3.82813,1.14063 -2.71875,0 -4.34375,-1.71875 -1.625,-1.73438 -1.625,-4.78125 0,-3.07813 1.625,-4.79688 1.625,-1.71875 4.40625,-1.71875 2.28125,0 3.60938,0.98438 1.34375,0.98437 1.9375,2.98437 z m 2.48829,-5.375 0,-3.04687 3.29687,0 0,3.04687 -3.29687,0 z m 0,14.14063 0,-12.45313 3.29687,0 0,12.45313 -3.29687,0 z m 24.19531,-8.76563 -3.25,0.57813 q -0.15625,-0.96875 -0.75,-1.45313 -0.57813,-0.5 -1.5,-0.5 -1.23438,0 -1.96875,0.85938 -0.71875,0.84375 -0.71875,2.82812 0,2.21875 0.73437,3.14063 0.75,0.90625 2,0.90625 0.9375,0 1.53125,-0.53125 0.60938,-0.53125 0.84375,-1.82813 l 3.23438,0.54688 q -0.5,2.21875 -1.9375,3.35937 -1.42188,1.14063 -3.82813,1.14063 -2.71875,0 -4.34375,-1.71875 -1.625,-1.73438 -1.625,-4.78125 0,-3.07813 1.625,-4.79688 1.625,-1.71875 4.40625,-1.71875 2.28125,0 3.60938,0.98438 1.34375,0.98437 1.9375,2.98437 z m 1.73827,2.35938 q 0,-1.64063 0.79688,-3.17188 0.8125,-1.53125 2.29687,-2.34375 1.48438,-0.8125 3.3125,-0.8125 2.82813,0 4.625,1.84375 1.8125,1.82813 1.8125,4.625 0,2.82813 -1.82812,4.6875 -1.82813,1.85938 -4.59375,1.85938 -1.70313,0 -3.26563,-0.76563 -1.54687,-0.78125 -2.35937,-2.26562 -0.79688,-1.5 -0.79688,-3.65625 z m 3.375,0.1875 q 0,1.84375 0.875,2.82812 0.875,0.98438 2.17188,0.98438 1.28125,0 2.15625,-0.98438 0.875,-0.98437 0.875,-2.85937 0,-1.82813 -0.875,-2.8125 -0.875,-0.98438 -2.15625,-0.98438 -1.29688,0 -2.17188,0.98438 -0.875,0.98437 -0.875,2.84375 z m 20.23828,6.21875 0,-1.85938 q -0.6875,0.98438 -1.79688,1.5625 -1.10937,0.57813 -2.32812,0.57813 -1.26563,0 -2.26563,-0.54688 -0.98437,-0.5625 -1.4375,-1.54687 -0.4375,-1 -0.4375,-2.76563 l 0,-7.875 3.29688,0 0,5.71875 q 0,2.625 0.17187,3.21875 0.1875,0.59375 0.65625,0.9375 0.48438,0.34375 1.23438,0.34375 0.84375,0 1.5,-0.45312 0.67187,-0.46875 0.92187,-1.15625 0.25,-0.6875 0.25,-3.35938 l 0,-5.25 3.28125,0 0,12.45313 -3.04687,0 z m 17.78516,0 -3.29687,0 0,-6.35938 q 0,-2.01562 -0.21875,-2.59375 -0.20313,-0.59375 -0.6875,-0.92187 -0.46875,-0.32813 -1.125,-0.32813 -0.85938,0 -1.54688,0.46875 -0.67187,0.46875 -0.92187,1.25 -0.25,0.76563 -0.25,2.84375 l 0,5.64063 -3.29688,0 0,-12.45313 3.0625,0 0,1.82813 q 1.625,-2.10938 4.09375,-2.10938 1.09375,0 1.98438,0.40625 0.90625,0.39063 1.375,1 0.46875,0.60938 0.64062,1.39063 0.1875,0.76562 0.1875,2.20312 l 0,7.73438 z m 14.1914,-8.76563 -3.25,0.57813 q -0.15625,-0.96875 -0.75,-1.45313 -0.57812,-0.5 -1.5,-0.5 -1.23437,0 -1.96875,0.85938 -0.71875,0.84375 -0.71875,2.82812 0,2.21875 0.73438,3.14063 0.75,0.90625 2,0.90625 0.9375,0 1.53125,-0.53125 0.60937,-0.53125 0.84375,-1.82813 l 3.23437,0.54688 q -0.5,2.21875 -1.9375,3.35937 -1.42187,1.14063 -3.82812,1.14063 -2.71875,0 -4.34375,-1.71875 -1.625,-1.73438 -1.625,-4.78125 0,-3.07813 1.625,-4.79688 1.625,-1.71875 4.40625,-1.71875 2.28125,0 3.60937,0.98438 1.34375,0.98437 1.9375,2.98437 z m 2.48828,-5.375 0,-3.04687 3.29688,0 0,3.04687 -3.29688,0 z m 0,14.14063 0,-12.45313 3.29688,0 0,12.45313 -3.29688,0 z m 6.66797,0 0,-17.1875 3.29688,0 0,17.1875 -3.29688,0 z" />
  <path
     style="fill:#000000;fill-rule:nonzero"
     inkscape:connector-curvature="0"
     id="path43-3"
     d="m 428.54864,261.3446 3.375,-0.32813 q 0.29687,1.70313 1.21875,2.5 0.9375,0.79688 2.53125,0.79688 1.67187,0 2.51562,-0.70313 0.85938,-0.71875 0.85938,-1.67187 0,-0.60938 -0.35938,-1.03125 -0.35937,-0.42188 -1.25,-0.75 -0.60937,-0.20313 -2.78125,-0.75 -2.78125,-0.6875 -3.90625,-1.6875 -1.59375,-1.42188 -1.59375,-3.46875 0,-1.3125 0.75,-2.45313 0.75,-1.14062 2.14063,-1.73437 1.40625,-0.59375 3.39062,-0.59375 3.23438,0 4.85938,1.42187 1.64062,1.40625 1.71875,3.78125 l -3.46875,0.14063 q -0.21875,-1.3125 -0.95313,-1.89063 -0.73437,-0.59375 -2.20312,-0.59375 -1.5,0 -2.35938,0.625 -0.54687,0.40625 -0.54687,1.0625 0,0.60938 0.51562,1.04688 0.65625,0.54687 3.1875,1.15625 2.53125,0.59375 3.73438,1.23437 1.21875,0.64063 1.90625,1.75 0.6875,1.09375 0.6875,2.73438 0,1.46875 -0.82813,2.76562 -0.8125,1.28125 -2.3125,1.92188 -1.5,0.625 -3.75,0.625 -3.25,0 -5,-1.5 -1.75,-1.51563 -2.07812,-4.40625 z m 24.07031,1.625 3.28125,0.5625 q -0.64062,1.79687 -2.01562,2.75 -1.35938,0.9375 -3.40625,0.9375 -3.25,0 -4.79688,-2.125 -1.23437,-1.70313 -1.23437,-4.28125 0,-3.09375 1.60937,-4.84375 1.625,-1.76563 4.09375,-1.76563 2.78125,0 4.375,1.84375 1.60938,1.82813 1.54688,5.60938 l -8.25,0 q 0.0312,1.46875 0.79687,2.28125 0.76563,0.8125 1.89063,0.8125 0.78125,0 1.29687,-0.42188 0.53125,-0.42187 0.8125,-1.35937 z m 0.1875,-3.32813 q -0.0469,-1.42187 -0.75,-2.15625 -0.70312,-0.75 -1.70312,-0.75 -1.07813,0 -1.78125,0.78125 -0.70313,0.78125 -0.6875,2.125 l 4.92187,0 z m 16.80078,-1.46875 -3.25,0.57813 q -0.15625,-0.96875 -0.75,-1.45313 -0.57812,-0.5 -1.5,-0.5 -1.23437,0 -1.96875,0.85938 -0.71875,0.84375 -0.71875,2.82812 0,2.21875 0.73438,3.14063 0.75,0.90625 2,0.90625 0.9375,0 1.53125,-0.53125 0.60937,-0.53125 0.84375,-1.82813 l 3.23437,0.54688 q -0.5,2.21875 -1.9375,3.35937 -1.42187,1.14063 -3.82812,1.14063 -2.71875,0 -4.34375,-1.71875 -1.625,-1.73438 -1.625,-4.78125 0,-3.07813 1.625,-4.79688 1.625,-1.71875 4.40625,-1.71875 2.28125,0 3.60937,0.98438 1.34375,0.98437 1.9375,2.98437 z m 8.20702,-3.6875 0,2.625 -2.25,0 0,5.01563 q 0,1.53125 0.0625,1.78125 0.0625,0.25 0.28125,0.42187 0.23438,0.15625 0.5625,0.15625 0.45313,0 1.32813,-0.3125 l 0.28125,2.54688 q -1.15625,0.5 -2.60938,0.5 -0.89062,0 -1.60937,-0.29688 -0.70313,-0.29687 -1.04688,-0.76562 -0.32812,-0.48438 -0.45312,-1.29688 -0.10938,-0.57812 -0.10938,-2.3125 l 0,-5.4375 -1.51562,0 0,-2.625 1.51562,0 0,-2.46875 3.3125,-1.92187 0,4.39062 2.25,0 z m 1.52344,6.04688 q 0,-1.64063 0.79688,-3.17188 0.8125,-1.53125 2.29687,-2.34375 1.48438,-0.8125 3.3125,-0.8125 2.82813,0 4.625,1.84375 1.8125,1.82813 1.8125,4.625 0,2.82813 -1.82812,4.6875 -1.82813,1.85938 -4.59375,1.85938 -1.70313,0 -3.26563,-0.76563 -1.54687,-0.78125 -2.35937,-2.26562 -0.79688,-1.5 -0.79688,-3.65625 z m 3.375,0.1875 q 0,1.84375 0.875,2.82812 0.875,0.98438 2.17188,0.98438 1.28125,0 2.15625,-0.98438 0.875,-0.98437 0.875,-2.85937 0,-1.82813 -0.875,-2.8125 -0.875,-0.98438 -2.15625,-0.98438 -1.29688,0 -2.17188,0.98438 -0.875,0.98437 -0.875,2.84375 z m 15.19141,6.21875 -3.29688,0 0,-12.45313 3.0625,0 0,1.78125 q 0.78125,-1.26562 1.40625,-1.65625 0.64063,-0.40625 1.4375,-0.40625 1.125,0 2.15625,0.625 l -1.01562,2.875 q -0.82813,-0.54687 -1.54688,-0.54687 -0.6875,0 -1.17187,0.39062 -0.48438,0.375 -0.76563,1.375 -0.26562,1 -0.26562,4.17188 l 0,3.84375 z m 18.32031,5.04687 -2.26563,0 q -1.79687,-2.70312 -2.73437,-5.625 -0.9375,-2.92187 -0.9375,-5.64062 0,-3.39063 1.17187,-6.42188 1,-2.625 2.54688,-4.82812 l 2.25,0 q -1.60938,3.54687 -2.21875,6.04687 -0.59375,2.48438 -0.59375,5.26563 0,1.92187 0.35937,3.9375 0.35938,2.01562 0.98438,3.84375 0.40625,1.1875 1.4375,3.42187 z m 1.67969,-10.64062 3.375,-0.32813 q 0.29687,1.70313 1.21875,2.5 0.9375,0.79688 2.53125,0.79688 1.67187,0 2.51562,-0.70313 0.85938,-0.71875 0.85938,-1.67187 0,-0.60938 -0.35938,-1.03125 -0.35937,-0.42188 -1.25,-0.75 -0.60937,-0.20313 -2.78125,-0.75 -2.78125,-0.6875 -3.90625,-1.6875 -1.59375,-1.42188 -1.59375,-3.46875 0,-1.3125 0.75,-2.45313 0.75,-1.14062 2.14063,-1.73437 1.40625,-0.59375 3.39062,-0.59375 3.23438,0 4.85938,1.42187 1.64062,1.40625 1.71875,3.78125 l -3.46875,0.14063 q -0.21875,-1.3125 -0.95313,-1.89063 -0.73437,-0.59375 -2.20312,-0.59375 -1.5,0 -2.35938,0.625 -0.54687,0.40625 -0.54687,1.0625 0,0.60938 0.51562,1.04688 0.65625,0.54687 3.1875,1.15625 2.53125,0.59375 3.73438,1.23437 1.21875,0.64063 1.90625,1.75 0.6875,1.09375 0.6875,2.73438 0,1.46875 -0.82813,2.76562 -0.8125,1.28125 -2.3125,1.92188 -1.5,0.625 -3.75,0.625 -3.25,0 -5,-1.5 -1.75,-1.51563 -2.07812,-4.40625 z m 16.00781,0 3.375,-0.32813 q 0.29687,1.70313 1.21875,2.5 0.9375,0.79688 2.53125,0.79688 1.67187,0 2.51562,-0.70313 0.85938,-0.71875 0.85938,-1.67187 0,-0.60938 -0.35938,-1.03125 -0.35937,-0.42188 -1.25,-0.75 -0.60937,-0.20313 -2.78125,-0.75 -2.78125,-0.6875 -3.90625,-1.6875 -1.59375,-1.42188 -1.59375,-3.46875 0,-1.3125 0.75,-2.45313 0.75,-1.14062 2.14063,-1.73437 1.40625,-0.59375 3.39062,-0.59375 3.23438,0 4.85938,1.42187 1.64062,1.40625 1.71875,3.78125 l -3.46875,0.14063 q -0.21875,-1.3125 -0.95313,-1.89063 -0.73437,-0.59375 -2.20312,-0.59375 -1.5,0 -2.35938,0.625 -0.54687,0.40625 -0.54687,1.0625 0,0.60938 0.51562,1.04688 0.65625,0.54687 3.1875,1.15625 2.53125,0.59375 3.73438,1.23437 1.21875,0.64063 1.90625,1.75 0.6875,1.09375 0.6875,2.73438 0,1.46875 -0.82813,2.76562 -0.8125,1.28125 -2.3125,1.92188 -1.5,0.625 -3.75,0.625 -3.25,0 -5,-1.5 -1.75,-1.51563 -2.07812,-4.40625 z m 20.74219,5.59375 0,-14.28125 -5.09375,0 0,-2.90625 13.65625,0 0,2.90625 -5.09375,0 0,14.28125 -3.46875,0 z m 9.86328,5.04687 q 0.96875,-2.07812 1.35937,-3.20312 0.40625,-1.10938 0.75,-2.5625 0.34375,-1.45313 0.5,-2.75 0.17188,-1.3125 0.17188,-2.6875 0,-2.78125 -0.60938,-5.26563 -0.59375,-2.5 -2.20312,-6.04687 l 2.25,0 q 1.76562,2.51562 2.73437,5.34375 0.98438,2.8125 0.98438,5.71875 0,2.45312 -0.76563,5.25 -0.89062,3.15625 -2.90625,6.20312 l -2.26562,0 z" />
  <path
     style="fill:#000000;fill-rule:nonzero"
     inkscape:connector-curvature="0"
     id="path37-5"
     d="m 997.34991,284.33765 3.31249,-0.51563 q 0.2031,0.96875 0.8437,1.46875 0.6563,0.5 1.8125,0.5 1.2813,0 1.9219,-0.46875 0.4375,-0.32812 0.4375,-0.89062 0,-0.375 -0.2344,-0.60938 -0.25,-0.23437 -1.1093,-0.4375 -3.9844,-0.875 -5.04689,-1.60937 -1.4844,-1 -1.4844,-2.79688 0,-1.625 1.2813,-2.71875 1.28119,-1.10937 3.96869,-1.10937 2.5469,0 3.7813,0.84375 1.25,0.82812 1.7187,2.45312 l -3.1094,0.57813 q -0.1875,-0.73438 -0.75,-1.10938 -0.5625,-0.39062 -1.5937,-0.39062 -1.2969,0 -1.8594,0.35937 -0.375,0.26563 -0.375,0.67188 0,0.34375 0.3281,0.59375 0.4532,0.32812 3.0782,0.9375 2.625,0.59375 3.6718,1.45312 1.0313,0.875 1.0313,2.45313 0,1.70312 -1.4375,2.9375 -1.4219,1.23437 -4.2188,1.23437 -2.5468,0 -4.03119,-1.03125 -1.4844,-1.03125 -1.9375,-2.79687 z m 21.72269,-0.42188 3.2812,0.5625 q -0.6406,1.79688 -2.0156,2.75 -1.3594,0.9375 -3.4063,0.9375 -3.25,0 -4.7968,-2.125 -1.2344,-1.70312 -1.2344,-4.28125 0,-3.09375 1.6094,-4.84375 1.625,-1.76562 4.0937,-1.76562 2.7813,0 4.375,1.84375 1.6094,1.82812 1.5469,5.60937 l -8.25,0 q 0.031,1.46875 0.7969,2.28125 0.7656,0.8125 1.8906,0.8125 0.7812,0 1.2969,-0.42187 0.5312,-0.42188 0.8125,-1.35938 z m 0.1875,-3.32812 q -0.047,-1.42188 -0.75,-2.15625 -0.7032,-0.75 -1.7032,-0.75 -1.0781,0 -1.7812,0.78125 -0.7031,0.78125 -0.6875,2.125 l 4.9219,0 z m 16.8007,-1.46875 -3.25,0.57812 q -0.1562,-0.96875 -0.75,-1.45312 -0.5781,-0.5 -1.5,-0.5 -1.2343,0 -1.9687,0.85937 -0.7188,0.84375 -0.7188,2.82813 0,2.21875 0.7344,3.14062 0.75,0.90625 2,0.90625 0.9375,0 1.5313,-0.53125 0.6093,-0.53125 0.8437,-1.82812 l 3.2344,0.54687 q -0.5,2.21875 -1.9375,3.35938 -1.4219,1.14062 -3.8281,1.14062 -2.7188,0 -4.3438,-1.71875 -1.625,-1.73437 -1.625,-4.78125 0,-3.07812 1.625,-4.79687 1.625,-1.71875 4.4063,-1.71875 2.2812,0 3.6093,0.98437 1.3438,0.98438 1.9375,2.98438 z m 8.2071,-3.6875 0,2.625 -2.25,0 0,5.01562 q 0,1.53125 0.062,1.78125 0.062,0.25 0.2812,0.42188 0.2344,0.15625 0.5625,0.15625 0.4531,0 1.3281,-0.3125 l 0.2813,2.54687 q -1.1563,0.5 -2.6094,0.5 -0.8906,0 -1.6094,-0.29687 -0.7031,-0.29688 -1.0468,-0.76563 -0.3282,-0.48437 -0.4532,-1.29687 -0.1093,-0.57813 -0.1093,-2.3125 l 0,-5.4375 -1.5157,0 0,-2.625 1.5157,0 0,-2.46875 3.3125,-1.92188 0,4.39063 2.25,0 z m 1.5234,6.04687 q 0,-1.64062 0.7969,-3.17187 0.8125,-1.53125 2.2969,-2.34375 1.4843,-0.8125 3.3125,-0.8125 2.8281,0 4.625,1.84375 1.8125,1.82812 1.8125,4.625 0,2.82812 -1.8282,4.6875 -1.8281,1.85937 -4.5937,1.85937 -1.7031,0 -3.2656,-0.76562 -1.5469,-0.78125 -2.3594,-2.26563 -0.7969,-1.5 -0.7969,-3.65625 z m 3.375,0.1875 q 0,1.84375 0.875,2.82813 0.875,0.98437 2.1719,0.98437 1.2812,0 2.1562,-0.98437 0.875,-0.98438 0.875,-2.85938 0,-1.82812 -0.875,-2.8125 -0.875,-0.98437 -2.1562,-0.98437 -1.2969,0 -2.1719,0.98437 -0.875,0.98438 -0.875,2.84375 z m 15.1914,6.21875 -3.2969,0 0,-12.45312 3.0625,0 0,1.78125 q 0.7813,-1.26563 1.4063,-1.65625 0.6406,-0.40625 1.4375,-0.40625 1.125,0 2.1562,0.625 l -1.0156,2.875 q -0.8281,-0.54688 -1.5469,-0.54688 -0.6875,0 -1.1718,0.39063 -0.4844,0.375 -0.7657,1.375 -0.2656,1 -0.2656,4.17187 l 0,3.84375 z m 5.0274,-3.54687 3.3125,-0.51563 q 0.2031,0.96875 0.8437,1.46875 0.6563,0.5 1.8125,0.5 1.2813,0 1.9219,-0.46875 0.4375,-0.32812 0.4375,-0.89062 0,-0.375 -0.2344,-0.60938 -0.25,-0.23437 -1.1094,-0.4375 -3.9843,-0.875 -5.0468,-1.60937 -1.4844,-1 -1.4844,-2.79688 0,-1.625 1.2812,-2.71875 1.2813,-1.10937 3.9688,-1.10937 2.5469,0 3.7812,0.84375 1.25,0.82812 1.7188,2.45312 l -3.1094,0.57813 q -0.1875,-0.73438 -0.75,-1.10938 -0.5625,-0.39062 -1.5937,-0.39062 -1.2969,0 -1.8594,0.35937 -0.375,0.26563 -0.375,0.67188 0,0.34375 0.3281,0.59375 0.4531,0.32812 3.0781,0.9375 2.625,0.59375 3.6719,1.45312 1.0313,0.875 1.0313,2.45313 0,1.70312 -1.4375,2.9375 -1.4219,1.23437 -4.2188,1.23437 -2.5469,0 -4.0312,-1.03125 -1.4844,-1.03125 -1.9375,-2.79687 z" />
  <path
     style="fill:#000000;fill-rule:nonzero"
     inkscape:connector-curvature="0"
     id="path15-6"
     d="m 767.16553,443.62149 q 0,-3.39063 1.8125,-5.29688 1.8281,-1.92187 4.7031,-1.92187 1.875,0 3.3906,0.90625 1.5156,0.89062 2.2969,2.5 0.7969,1.60937 0.7969,3.65625 0,2.0625 -0.8438,3.70312 -0.82809,1.625 -2.3594,2.46875 -1.5312,0.84375 -3.2968,0.84375 -1.9219,0 -3.4375,-0.92187 -1.5,-0.9375 -2.2813,-2.53125 -0.7812,-1.60938 -0.7812,-3.40625 z m 1.8593,0.0312 q 0,2.45312 1.3125,3.875 1.3282,1.40625 3.3125,1.40625 2.0313,0 3.3438,-1.42188 1.3125,-1.4375 1.3125,-4.0625 0,-1.65625 -0.5625,-2.89062 -0.5469,-1.23438 -1.6406,-1.92188 -1.0782,-0.6875 -2.4219,-0.6875 -1.9063,0 -3.2813,1.3125 -1.375,1.3125 -1.375,4.39063 z m 16.6365,5.09375 0.2343,1.48437 q -0.7031,0.14063 -1.2656,0.14063 -0.9062,0 -1.4062,-0.28125 -0.5,-0.29688 -0.7032,-0.75 -0.2031,-0.46875 -0.2031,-1.98438 l 0,-5.65625 -1.2344,0 0,-1.3125 1.2344,0 0,-2.4375 1.6563,-1 0,3.4375 1.6875,0 0,1.3125 -1.6875,0 0,5.75 q 0,0.71875 0.078,0.92188 0.094,0.20312 0.2968,0.32812 0.2032,0.125 0.5782,0.125 0.2656,0 0.7343,-0.0781 z m 1.527,1.5 0,-13.59375 1.6719,0 0,4.875 q 1.17191,-1.35938 2.9531,-1.35938 1.0938,0 1.8906,0.4375 0.8125,0.42188 1.1563,1.1875 0.3594,0.76563 0.3594,2.20313 l 0,6.25 -1.6719,0 0,-6.25 q 0,-1.25 -0.5469,-1.8125 -0.5469,-0.57813 -1.5312,-0.57813 -0.75,0 -1.4063,0.39063 -0.6406,0.375 -0.9219,1.04687 -0.2812,0.65625 -0.2812,1.8125 l 0,5.39063 -1.6719,0 z m 17.1257,-3.17188 1.7188,0.21875 q -0.4063,1.5 -1.51559,2.34375 -1.0938,0.82813 -2.8125,0.82813 -2.1563,0 -3.42191,-1.32813 -1.26559,-1.32812 -1.26559,-3.73437 0,-2.48438 1.26559,-3.85938 1.2812,-1.375 3.3281,-1.375 1.9844,0 3.2344,1.34375 1.25,1.34375 1.25,3.79688 0,0.14062 -0.016,0.4375 l -7.3438,0 q 0.094,1.625 0.9219,2.48437 0.8281,0.85938 2.0625,0.85938 0.9063,0 1.5469,-0.46875 0.6562,-0.48438 1.0469,-1.54688 z m -5.48429,-2.70312 5.5,0 q -0.10941,-1.23438 -0.625,-1.85938 -0.79691,-0.96875 -2.07821,-0.96875 -1.14059,0 -1.9375,0.78125 -0.7812,0.76563 -0.85929,2.04688 z m 9.09439,5.875 0,-9.85938 1.5,0 0,1.5 q 0.57821,-1.04687 1.0625,-1.375 0.48441,-0.34375 1.07821,-0.34375 0.8437,0 1.7187,0.54688 l -0.5781,1.54687 q -0.6094,-0.35937 -1.2344,-0.35937 -0.54691,0 -0.98441,0.32812 -0.42179,0.32813 -0.60929,0.90625 -0.2813,0.89063 -0.2813,1.95313 l 0,5.15625 -1.67191,0 z" />
  <path
     style="fill:#000000;fill-rule:nonzero"
     inkscape:connector-curvature="0"
     id="path17-2"
     d="m 757.00944,472.24649 0,-8.54688 -1.4843,0 0,-1.3125 1.4843,0 0,-1.04687 q 0,-0.98438 0.1719,-1.46875 0.2344,-0.65625 0.8438,-1.04688 0.6093,-0.40625 1.7031,-0.40625 0.70309,0 1.5625,0.15625 l -0.25,1.46875 q -0.5156,-0.0937 -0.98441,-0.0937 -0.76559,0 -1.07809,0.32813 -0.3125,0.3125 -0.3125,1.20312 l 0,0.90625 1.9219,0 0,1.3125 -1.9219,0 0,8.54688 -1.6563,0 z m 11.2146,-1.21875 q -0.9375,0.79687 -1.7969,1.125 -0.85941,0.3125 -1.8438,0.3125 -1.6093,0 -2.4843,-0.78125 -0.875,-0.79688 -0.875,-2.03125 0,-0.73438 0.3281,-1.32813 0.32809,-0.59375 0.8594,-0.95312 0.5312,-0.35938 1.2031,-0.54688 0.5,-0.14062 1.4844,-0.25 2.0312,-0.25 2.9843,-0.57812 0,-0.34375 0,-0.4375 0,-1.01563 -0.4687,-1.4375 -0.6406,-0.5625 -1.9063,-0.5625 -1.1718,0 -1.7343,0.40625 -0.5625,0.40625 -0.8282,1.46875 l -1.6406,-0.23438 q 0.2344,-1.04687 0.7344,-1.6875 0.5156,-0.64062 1.4687,-0.98437 0.9688,-0.35938 2.25,-0.35938 1.2657,0 2.0469,0.29688 0.7813,0.29687 1.1563,0.75 0.375,0.45312 0.5156,1.14062 0.094,0.42188 0.094,1.53125 l 0,2.23438 q 0,2.32812 0.094,2.95312 0.1094,0.60938 0.4375,1.17188 l -1.75,0 q -0.2656,-0.51563 -0.3281,-1.21875 z m -0.1407,-3.71875 q -0.9062,0.35937 -2.7343,0.625 -1.0313,0.14062 -1.4532,0.32812 -0.4218,0.1875 -0.6562,0.54688 -0.23441,0.35937 -0.23441,0.79687 0,0.67188 0.5,1.125 0.5156,0.4375 1.48441,0.4375 0.9687,0 1.7187,-0.42187 0.75,-0.4375 1.1094,-1.15625 0.2656,-0.57813 0.2656,-1.67188 l 0,-0.60937 z m 10.51639,1.32812 1.6406,0.21875 q -0.2656,1.6875 -1.375,2.65625 -1.1093,0.95313 -2.7343,0.95313 -2.0157,0 -3.25,-1.3125 -1.2188,-1.32813 -1.2188,-3.79688 0,-1.59375 0.5156,-2.78125 0.5313,-1.20312 1.6094,-1.79687 1.0938,-0.60938 2.35941,-0.60938 1.6094,0 2.625,0.8125 1.01559,0.8125 1.3125,2.3125 l -1.625,0.25 q -0.23441,-1 -0.8281,-1.5 -0.5938,-0.5 -1.4219,-0.5 -1.2656,0 -2.0625,0.90625 -0.7813,0.90625 -0.7813,2.85938 0,1.98437 0.7657,2.89062 0.7656,0.89063 1.9843,0.89063 0.9844,0 1.6407,-0.59375 0.6562,-0.60938 0.8437,-1.85938 z m 9.3438,3.60938 0,-1.45313 q -1.1407,1.67188 -3.125,1.67188 -0.8594,0 -1.625,-0.32813 -0.75,-0.34375 -1.125,-0.84375 -0.3594,-0.5 -0.5157,-1.23437 -0.094,-0.5 -0.094,-1.5625 l 0,-6.10938 1.6719,0 0,5.46875 q 0,1.3125 0.094,1.76563 0.1563,0.65625 0.67191,1.03125 0.51559,0.375 1.26559,0.375 0.75,0 1.4063,-0.375 0.6562,-0.39063 0.9218,-1.04688 0.2813,-0.67187 0.2813,-1.9375 l 0,-5.28125 1.6719,0 0,9.85938 -1.5,0 z m 3.8913,0 0,-13.59375 1.67191,0 0,13.59375 -1.67191,0 z m 7.83231,-1.5 0.2344,1.48437 q -0.7031,0.14063 -1.2656,0.14063 -0.9063,0 -1.4063,-0.28125 -0.5,-0.29688 -0.7031,-0.75 -0.2031,-0.46875 -0.2031,-1.98438 l 0,-5.65625 -1.2344,0 0,-1.3125 1.2344,0 0,-2.4375 1.6562,-1 0,3.4375 1.6875,0 0,1.3125 -1.6875,0 0,5.75 q 0,0.71875 0.078,0.92188 0.094,0.20312 0.2969,0.32812 0.2031,0.125 0.5781,0.125 0.2657,0 0.7344,-0.0781 z m 1.54269,-10.1875 0,-1.90625 1.67191,0 0,1.90625 -1.67191,0 z m 0,11.6875 0,-9.85938 1.67191,0 0,9.85938 -1.67191,0 z m 10.8792,-3.17188 1.7188,0.21875 q -0.4063,1.5 -1.5157,2.34375 -1.0937,0.82813 -2.8125,0.82813 -2.1562,0 -3.4218,-1.32813 -1.2657,-1.32812 -1.2657,-3.73437 0,-2.48438 1.2657,-3.85938 1.2812,-1.375 3.3281,-1.375 1.9844,0 3.2344,1.34375 1.25,1.34375 1.25,3.79688 0,0.14062 -0.016,0.4375 l -7.3438,0 q 0.094,1.625 0.92191,2.48437 0.82809,0.85938 2.0625,0.85938 0.9062,0 1.5469,-0.46875 0.6562,-0.48438 1.0468,-1.54688 z m -5.4844,-2.70312 5.5,0 q -0.1093,-1.23438 -0.625,-1.85938 -0.7968,-0.96875 -2.0781,-0.96875 -1.14059,0 -1.9375,0.78125 -0.7812,0.76563 -0.8594,2.04688 z m 8.4382,2.9375 1.6563,-0.26563 q 0.1406,1 0.7656,1.53125 0.6406,0.51563 1.7812,0.51563 1.1563,0 1.7032,-0.46875 0.5625,-0.46875 0.5625,-1.09375 0,-0.5625 -0.4844,-0.89063 -0.3438,-0.21875 -1.7031,-0.5625 -1.8438,-0.46875 -2.5625,-0.79687 -0.7032,-0.34375 -1.0782,-0.9375 -0.3593,-0.60938 -0.3593,-1.32813 0,-0.65625 0.2968,-1.21875 0.3125,-0.5625 0.8282,-0.9375 0.3906,-0.28125 1.0625,-0.48437 0.6718,-0.20313 1.4375,-0.20313 1.1718,0 2.0468,0.34375 0.875,0.32813 1.2813,0.90625 0.4219,0.5625 0.5781,1.51563 l -1.625,0.21875 q -0.1094,-0.75 -0.6562,-1.17188 -0.5313,-0.4375 -1.5,-0.4375 -1.1563,0 -1.6407,0.39063 -0.4843,0.375 -0.4843,0.875 0,0.32812 0.2031,0.59375 0.2031,0.26562 0.6406,0.4375 0.25,0.0937 1.4688,0.4375 1.7656,0.46875 2.4687,0.76562 0.7031,0.29688 1.0938,0.875 0.4062,0.57813 0.4062,1.4375 0,0.82813 -0.4844,1.57813 -0.4843,0.73437 -1.4062,1.14062 -0.9219,0.39063 -2.0781,0.39063 -1.9219,0 -2.9375,-0.79688 -1,-0.79687 -1.2813,-2.35937 z" />
  <path
     style="fill:#000000;fill-rule:nonzero"
     inkscape:connector-curvature="0"
     id="path19-9"
     d="m 772.29084,491.87149 1.6875,-0.14063 q 0.125,1.01563 0.5625,1.67188 0.4375,0.65625 1.3594,1.0625 0.9375,0.40625 2.0937,0.40625 1.0313,0 1.8125,-0.3125 0.7969,-0.3125 1.1875,-0.84375 0.3906,-0.53125 0.3906,-1.15625 0,-0.64063 -0.375,-1.10938 -0.375,-0.48437 -1.2343,-0.8125 -0.5469,-0.21875 -2.4219,-0.65625 -1.875,-0.45312 -2.625,-0.85937 -0.9688,-0.51563 -1.4531,-1.26563 -0.4688,-0.75 -0.4688,-1.6875 0,-1.03125 0.5781,-1.92187 0.5938,-0.90625 1.7032,-1.35938 1.125,-0.46875 2.5,-0.46875 1.5156,0 2.6718,0.48438 1.1563,0.48437 1.7657,1.4375 0.625,0.9375 0.6718,2.14062 l -1.7187,0.125 q -0.1406,-1.28125 -0.9531,-1.9375 -0.7969,-0.67187 -2.3594,-0.67187 -1.625,0 -2.375,0.60937 -0.75,0.59375 -0.75,1.4375 0,0.73438 0.5312,1.20313 0.5157,0.46875 2.7032,0.96875 2.2031,0.5 3.0156,0.875 1.1875,0.54687 1.75,1.39062 0.57809,0.82813 0.57809,1.92188 0,1.09375 -0.625,2.0625 -0.625,0.95312 -1.7969,1.48437 -1.1562,0.53125 -2.6093,0.53125 -1.8438,0 -3.0938,-0.53125 -1.25,-0.54687 -1.9687,-1.625 -0.7032,-1.07812 -0.7344,-2.45312 z m 12.44359,0 1.6875,-0.14063 q 0.125,1.01563 0.5625,1.67188 0.4375,0.65625 1.35941,1.0625 0.9375,0.40625 2.0937,0.40625 1.0313,0 1.8125,-0.3125 0.7969,-0.3125 1.1875,-0.84375 0.39059,-0.53125 0.39059,-1.15625 0,-0.64063 -0.375,-1.10938 -0.375,-0.48437 -1.23429,-0.8125 -0.54691,-0.21875 -2.42191,-0.65625 -1.875,-0.45312 -2.625,-0.85937 -0.9688,-0.51563 -1.45309,-1.26563 -0.4688,-0.75 -0.4688,-1.6875 0,-1.03125 0.57809,-1.92187 0.5938,-0.90625 1.70321,-1.35938 1.125,-0.46875 2.5,-0.46875 1.51559,0 2.67179,0.48438 1.1563,0.48437 1.76571,1.4375 0.625,0.9375 0.67179,2.14062 l -1.7187,0.125 q -0.14059,-1.28125 -0.95309,-1.9375 -0.79691,-0.67187 -2.35941,-0.67187 -1.625,0 -2.375,0.60937 -0.75,0.59375 -0.75,1.4375 0,0.73438 0.5312,1.20313 0.51571,0.46875 2.70321,0.96875 2.20309,0.5 3.01559,0.875 1.1875,0.54687 1.75,1.39062 0.5781,0.82813 0.5781,1.92188 0,1.09375 -0.625,2.0625 -0.625,0.95312 -1.7969,1.48437 -1.1562,0.53125 -2.6093,0.53125 -1.8438,0 -3.0938,-0.53125 -1.25,-0.54687 -1.9687,-1.625 -0.7032,-1.07812 -0.7344,-2.45312 z m 16.506,4.375 0,-12 -4.4687,0 0,-1.59375 10.7656,0 0,1.59375 -4.5,0 0,12 -1.7969,0 z" />
  <path
     style="fill:#000000;fill-rule:nonzero"
     inkscape:connector-curvature="0"
     id="path25-1"
     d="m 882.40614,443.62149 q 0,-3.39063 1.8125,-5.29688 1.8282,-1.92187 4.7032,-1.92187 1.875,0 3.3906,0.90625 1.51559,0.89062 2.2969,2.5 0.7968,1.60937 0.7968,3.65625 0,2.0625 -0.8437,3.70312 -0.8281,1.625 -2.35941,2.46875 -1.5312,0.84375 -3.2969,0.84375 -1.9218,0 -3.4375,-0.92187 -1.5,-0.9375 -2.2812,-2.53125 -0.7813,-1.60938 -0.7813,-3.40625 z m 1.8594,0.0312 q 0,2.45312 1.3125,3.875 1.3281,1.40625 3.3125,1.40625 2.0313,0 3.3438,-1.42188 1.3125,-1.4375 1.3125,-4.0625 0,-1.65625 -0.5625,-2.89062 -0.5469,-1.23438 -1.6407,-1.92188 -1.0781,-0.6875 -2.4218,-0.6875 -1.9063,0 -3.2813,1.3125 -1.375,1.3125 -1.375,4.39063 z m 16.6364,5.09375 0.2344,1.48437 q -0.7031,0.14063 -1.2656,0.14063 -0.9063,0 -1.4063,-0.28125 -0.5,-0.29688 -0.7031,-0.75 -0.2031,-0.46875 -0.2031,-1.98438 l 0,-5.65625 -1.2344,0 0,-1.3125 1.2344,0 0,-2.4375 1.6562,-1 0,3.4375 1.6875,0 0,1.3125 -1.6875,0 0,5.75 q 0,0.71875 0.078,0.92188 0.094,0.20312 0.2969,0.32812 0.2031,0.125 0.5781,0.125 0.2656,0 0.7344,-0.0781 z m 1.5271,1.5 0,-13.59375 1.6718,0 0,4.875 q 1.1719,-1.35938 2.9532,-1.35938 1.0937,0 1.8906,0.4375 0.8125,0.42188 1.1562,1.1875 0.3594,0.76563 0.3594,2.20313 l 0,6.25 -1.6719,0 0,-6.25 q 0,-1.25 -0.5468,-1.8125 -0.5469,-0.57813 -1.5313,-0.57813 -0.75,0 -1.4062,0.39063 -0.6407,0.375 -0.9219,1.04687 -0.2813,0.65625 -0.2813,1.8125 l 0,5.39063 -1.6718,0 z m 17.1257,-3.17188 1.7187,0.21875 q -0.4062,1.5 -1.5156,2.34375 -1.0937,0.82813 -2.8125,0.82813 -2.1562,0 -3.4219,-1.32813 -1.2656,-1.32812 -1.2656,-3.73437 0,-2.48438 1.2656,-3.85938 1.2813,-1.375 3.3282,-1.375 1.9843,0 3.2343,1.34375 1.25,1.34375 1.25,3.79688 0,0.14062 -0.016,0.4375 l -7.3437,0 q 0.094,1.625 0.9219,2.48437 0.8281,0.85938 2.0625,0.85938 0.9062,0 1.5468,-0.46875 0.6563,-0.48438 1.0469,-1.54688 z m -5.4844,-2.70312 5.5,0 q -0.1094,-1.23438 -0.625,-1.85938 -0.7969,-0.96875 -2.0781,-0.96875 -1.1406,0 -1.9375,0.78125 -0.7813,0.76563 -0.8594,2.04688 z m 9.0945,5.875 0,-9.85938 1.5,0 0,1.5 q 0.5781,-1.04687 1.0625,-1.375 0.4844,-0.34375 1.0781,-0.34375 0.8438,0 1.7188,0.54688 l -0.5782,1.54687 q -0.6093,-0.35937 -1.2343,-0.35937 -0.5469,0 -0.9844,0.32812 -0.42191,0.32813 -0.60941,0.90625 -0.2812,0.89063 -0.2812,1.95313 l 0,5.15625 -1.6719,0 z" />
  <path
     style="fill:#000000;fill-rule:nonzero"
     inkscape:connector-curvature="0"
     id="path27-2"
     d="m 869.26783,460.55899 0,-1.90625 1.67191,0 0,1.90625 -1.67191,0 z m 0,11.6875 0,-9.85938 1.67191,0 0,9.85938 -1.67191,0 z m 4.1292,0 0,-9.85938 1.5,0 0,1.40625 q 1.0937,-1.625 3.1406,-1.625 0.8906,0 1.6406,0.32813 0.75,0.3125 1.1094,0.84375 0.375,0.51562 0.5313,1.21875 0.094,0.46875 0.094,1.625 l 0,6.0625 -1.6719,0 0,-6 q 0,-1.01563 -0.2031,-1.51563 -0.1875,-0.51562 -0.6875,-0.8125 -0.5,-0.29687 -1.1719,-0.29687 -1.0625,0 -1.8438,0.67187 -0.7656,0.67188 -0.7656,2.57813 l 0,5.375 -1.6719,0 z m 9.7038,-2.9375 1.6563,-0.26563 q 0.1406,1 0.7656,1.53125 0.6406,0.51563 1.7813,0.51563 1.1562,0 1.7031,-0.46875 0.5625,-0.46875 0.5625,-1.09375 0,-0.5625 -0.4844,-0.89063 -0.3437,-0.21875 -1.7031,-0.5625 -1.8438,-0.46875 -2.5625,-0.79687 -0.7031,-0.34375 -1.0781,-0.9375 -0.3594,-0.60938 -0.3594,-1.32813 0,-0.65625 0.2969,-1.21875 0.3125,-0.5625 0.8281,-0.9375 0.3906,-0.28125 1.0625,-0.48437 0.6719,-0.20313 1.4375,-0.20313 1.1719,0 2.0469,0.34375 0.875,0.32813 1.2812,0.90625 0.4219,0.5625 0.5781,1.51563 l -1.625,0.21875 q -0.1093,-0.75 -0.6562,-1.17188 -0.5313,-0.4375 -1.5,-0.4375 -1.1563,0 -1.6406,0.39063 -0.4844,0.375 -0.4844,0.875 0,0.32812 0.2031,0.59375 0.2031,0.26562 0.6406,0.4375 0.25,0.0937 1.4688,0.4375 1.7656,0.46875 2.4687,0.76562 0.7032,0.29688 1.0938,0.875 0.4062,0.57813 0.4062,1.4375 0,0.82813 -0.4843,1.57813 -0.4844,0.73437 -1.4063,1.14062 -0.9219,0.39063 -2.0781,0.39063 -1.9219,0 -2.9375,-0.79688 -1,-0.79687 -1.2813,-2.35937 z m 13.6563,1.4375 0.2344,1.48437 q -0.7032,0.14063 -1.2657,0.14063 -0.9062,0 -1.4062,-0.28125 -0.5,-0.29688 -0.7031,-0.75 -0.2032,-0.46875 -0.2032,-1.98438 l 0,-5.65625 -1.2343,0 0,-1.3125 1.2343,0 0,-2.4375 1.6563,-1 0,3.4375 1.6875,0 0,1.3125 -1.6875,0 0,5.75 q 0,0.71875 0.078,0.92188 0.094,0.20312 0.2969,0.32812 0.2031,0.125 0.5781,0.125 0.2656,0 0.7344,-0.0781 z m 1.5426,-10.1875 0,-1.90625 1.6719,0 0,1.90625 -1.6719,0 z m 0,11.6875 0,-9.85938 1.6719,0 0,9.85938 -1.6719,0 z m 7.7855,-1.5 0.2344,1.48437 q -0.7031,0.14063 -1.2656,0.14063 -0.9063,0 -1.4063,-0.28125 -0.5,-0.29688 -0.70309,-0.75 -0.2031,-0.46875 -0.2031,-1.98438 l 0,-5.65625 -1.2344,0 0,-1.3125 1.2344,0 0,-2.4375 1.6562,-1 0,3.4375 1.6875,0 0,1.3125 -1.6875,0 0,5.75 q 0,0.71875 0.078,0.92188 0.094,0.20312 0.2969,0.32812 0.2031,0.125 0.5781,0.125 0.2656,0 0.7344,-0.0781 z m 7.9802,1.5 0,-1.45313 q -1.1407,1.67188 -3.125,1.67188 -0.8594,0 -1.625,-0.32813 -0.75,-0.34375 -1.125,-0.84375 -0.3594,-0.5 -0.5157,-1.23437 -0.094,-0.5 -0.094,-1.5625 l 0,-6.10938 1.6719,0 0,5.46875 q 0,1.3125 0.094,1.76563 0.1563,0.65625 0.6719,1.03125 0.5156,0.375 1.2656,0.375 0.75,0 1.4063,-0.375 0.6562,-0.39063 0.9218,-1.04688 0.2813,-0.67187 0.2813,-1.9375 l 0,-5.28125 1.6719,0 0,9.85938 -1.5,0 z m 7.5788,-1.5 0.2344,1.48437 q -0.7031,0.14063 -1.2656,0.14063 -0.9063,0 -1.4063,-0.28125 -0.5,-0.29688 -0.70309,-0.75 -0.2031,-0.46875 -0.2031,-1.98438 l 0,-5.65625 -1.2344,0 0,-1.3125 1.2344,0 0,-2.4375 1.6562,-1 0,3.4375 1.6875,0 0,1.3125 -1.6875,0 0,5.75 q 0,0.71875 0.078,0.92188 0.094,0.20312 0.2969,0.32812 0.2031,0.125 0.5781,0.125 0.2656,0 0.7344,-0.0781 z m 8.2771,-1.67188 1.7187,0.21875 q -0.4062,1.5 -1.5156,2.34375 -1.0938,0.82813 -2.8125,0.82813 -2.1563,0 -3.4219,-1.32813 -1.2656,-1.32812 -1.2656,-3.73437 0,-2.48438 1.2656,-3.85938 1.2813,-1.375 3.3281,-1.375 1.9844,0 3.2344,1.34375 1.25,1.34375 1.25,3.79688 0,0.14062 -0.016,0.4375 l -7.3437,0 q 0.094,1.625 0.9218,2.48437 0.8282,0.85938 2.0625,0.85938 0.9063,0 1.5469,-0.46875 0.6563,-0.48438 1.0469,-1.54688 z m -5.4844,-2.70312 5.5,0 q -0.1094,-1.23438 -0.625,-1.85938 -0.7969,-0.96875 -2.0781,-0.96875 -1.1407,0 -1.9375,0.78125 -0.7813,0.76563 -0.8594,2.04688 z m 8.4382,2.9375 1.6563,-0.26563 q 0.1406,1 0.7656,1.53125 0.6406,0.51563 1.7812,0.51563 1.1563,0 1.7032,-0.46875 0.5625,-0.46875 0.5625,-1.09375 0,-0.5625 -0.4844,-0.89063 -0.3438,-0.21875 -1.7031,-0.5625 -1.8438,-0.46875 -2.5625,-0.79687 -0.7032,-0.34375 -1.0782,-0.9375 -0.3593,-0.60938 -0.3593,-1.32813 0,-0.65625 0.2968,-1.21875 0.3125,-0.5625 0.8282,-0.9375 0.3906,-0.28125 1.0625,-0.48437 0.6718,-0.20313 1.4375,-0.20313 1.1718,0 2.0468,0.34375 0.875,0.32813 1.2813,0.90625 0.4219,0.5625 0.5781,1.51563 l -1.625,0.21875 q -0.1094,-0.75 -0.6562,-1.17188 -0.5313,-0.4375 -1.5,-0.4375 -1.1563,0 -1.6407,0.39063 -0.4843,0.375 -0.4843,0.875 0,0.32812 0.2031,0.59375 0.2031,0.26562 0.6406,0.4375 0.25,0.0937 1.4688,0.4375 1.7656,0.46875 2.4687,0.76562 0.7031,0.29688 1.0938,0.875 0.4062,0.57813 0.4062,1.4375 0,0.82813 -0.4844,1.57813 -0.4843,0.73437 -1.4062,1.14062 -0.9219,0.39063 -2.0781,0.39063 -1.9219,0 -2.9375,-0.79688 -1,-0.79687 -1.2813,-2.35937 z" />
  <path
     style="fill:#000000;fill-rule:nonzero"
     inkscape:connector-curvature="0"
     id="path29-7"
     d="m 887.53143,489.87149 1.6875,-0.14063 q 0.125,1.01563 0.5625,1.67188 0.4375,0.65625 1.35941,1.0625 0.9375,0.40625 2.0937,0.40625 1.0313,0 1.8125,-0.3125 0.7969,-0.3125 1.1875,-0.84375 0.3907,-0.53125 0.3907,-1.15625 0,-0.64063 -0.375,-1.10938 -0.375,-0.48437 -1.2344,-0.8125 -0.54691,-0.21875 -2.42191,-0.65625 -1.875,-0.45312 -2.625,-0.85937 -0.9687,-0.51563 -1.45309,-1.26563 -0.4688,-0.75 -0.4688,-1.6875 0,-1.03125 0.5782,-1.92187 0.5937,-0.90625 1.7031,-1.35938 1.125,-0.46875 2.5,-0.46875 1.51559,0 2.6719,0.48438 1.1562,0.48437 1.7656,1.4375 0.625,0.9375 0.6719,2.14062 l -1.7188,0.125 q -0.1406,-1.28125 -0.9531,-1.9375 -0.7969,-0.67187 -2.3594,-0.67187 -1.625,0 -2.375,0.60937 -0.75,0.59375 -0.75,1.4375 0,0.73438 0.5313,1.20313 0.5156,0.46875 2.7031,0.96875 2.20309,0.5 3.01559,0.875 1.1875,0.54687 1.75,1.39062 0.5781,0.82813 0.5781,1.92188 0,1.09375 -0.625,2.0625 -0.625,0.95312 -1.7968,1.48437 -1.1563,0.53125 -2.6094,0.53125 -1.8438,0 -3.0938,-0.53125 -1.25,-0.54687 -1.9687,-1.625 -0.7031,-1.07812 -0.7344,-2.45312 z m 12.4436,0 1.6875,-0.14063 q 0.125,1.01563 0.5625,1.67188 0.4375,0.65625 1.3594,1.0625 0.9375,0.40625 2.0938,0.40625 1.0312,0 1.8125,-0.3125 0.7968,-0.3125 1.1875,-0.84375 0.3906,-0.53125 0.3906,-1.15625 0,-0.64063 -0.375,-1.10938 -0.375,-0.48437 -1.2344,-0.8125 -0.5469,-0.21875 -2.4219,-0.65625 -1.875,-0.45312 -2.625,-0.85937 -0.9687,-0.51563 -1.4531,-1.26563 -0.4687,-0.75 -0.4687,-1.6875 0,-1.03125 0.5781,-1.92187 0.5937,-0.90625 1.7031,-1.35938 1.125,-0.46875 2.5,-0.46875 1.5156,0 2.6719,0.48438 1.1562,0.48437 1.7656,1.4375 0.625,0.9375 0.6719,2.14062 l -1.7188,0.125 q -0.1406,-1.28125 -0.9531,-1.9375 -0.7969,-0.67187 -2.3594,-0.67187 -1.625,0 -2.375,0.60937 -0.75,0.59375 -0.75,1.4375 0,0.73438 0.5313,1.20313 0.5156,0.46875 2.7031,0.96875 2.2031,0.5 3.0156,0.875 1.1875,0.54687 1.75,1.39062 0.5782,0.82813 0.5782,1.92188 0,1.09375 -0.625,2.0625 -0.625,0.95312 -1.7969,1.48437 -1.1563,0.53125 -2.6094,0.53125 -1.8437,0 -3.0937,-0.53125 -1.25,-0.54687 -1.9688,-1.625 -0.7031,-1.07812 -0.7344,-2.45312 z m 16.5061,4.375 0,-12 -4.4688,0 0,-1.59375 10.7656,0 0,1.59375 -4.5,0 0,12 -1.7968,0 z" />
  <path
     style="fill:#000000;fill-rule:nonzero"
     inkscape:connector-curvature="0"
     id="path49-0"
     d="m 52.792898,428.86254 0,-17.1875 3.46875,0 0,17.1875 -3.46875,0 z m 18.07421,0 -3.29687,0 0,-6.35938 q 0,-2.01562 -0.21875,-2.59375 -0.20313,-0.59375 -0.6875,-0.92187 -0.46875,-0.32813 -1.125,-0.32813 -0.85938,0 -1.54688,0.46875 -0.67187,0.46875 -0.92187,1.25 -0.25,0.76563 -0.25,2.84375 l 0,5.64063 -3.29688,0 0,-12.45313 3.0625,0 0,1.82813 q 1.625,-2.10938 4.09375,-2.10938 1.09375,0 1.98438,0.40625 0.90625,0.39063 1.375,1 0.46875,0.60938 0.64062,1.39063 0.1875,0.76562 0.1875,2.20312 l 0,7.73438 z m 2.17579,-3.54688 3.3125,-0.51562 q 0.20312,0.96875 0.84375,1.46875 0.656247,0.5 1.812497,0.5 1.28125,0 1.92187,-0.46875 0.4375,-0.32813 0.4375,-0.89063 0,-0.375 -0.23437,-0.60937 -0.25,-0.23438 -1.10938,-0.4375 -3.984367,-0.875 -5.046867,-1.60938 -1.48438,-1 -1.48438,-2.79687 0,-1.625 1.28125,-2.71875 1.28125,-1.10938 3.968747,-1.10938 2.54688,0 3.78125,0.84375 1.25,0.82813 1.71875,2.45313 l -3.10937,0.57812 q -0.1875,-0.73437 -0.75,-1.10937 -0.5625,-0.39063 -1.59375,-0.39063 -1.29688,0 -1.859377,0.35938 -0.375,0.26562 -0.375,0.67187 0,0.34375 0.32813,0.59375 0.45312,0.32813 3.078117,0.9375 2.625,0.59375 3.67188,1.45313 1.03125,0.875 1.03125,2.45312 0,1.70313 -1.4375,2.9375 -1.42188,1.23438 -4.21875,1.23438 -2.546877,0 -4.031247,-1.03125 -1.48438,-1.03125 -1.9375,-2.79688 z m 20.222647,-8.90625 0,2.625 -2.25,0 0,5.01563 q 0,1.53125 0.0625,1.78125 0.0625,0.25 0.28125,0.42187 0.23438,0.15625 0.5625,0.15625 0.45313,0 1.32813,-0.3125 l 0.28125,2.54688 q -1.15625,0.5 -2.60938,0.5 -0.89062,0 -1.60937,-0.29688 -0.70313,-0.29687 -1.04688,-0.76562 -0.32812,-0.48438 -0.45312,-1.29688 -0.10938,-0.57812 -0.10938,-2.3125 l 0,-5.4375 -1.51562,0 0,-2.625 1.51562,0 0,-2.46875 3.3125,-1.92187 0,4.39062 2.25,0 z m 2.27344,-1.6875 0,-3.04687 3.29687,0 0,3.04687 -3.29687,0 z m 0,14.14063 0,-12.45313 3.29687,0 0,12.45313 -3.29687,0 z m 12.386725,-12.45313 0,2.625 -2.25,0 0,5.01563 q 0,1.53125 0.0625,1.78125 0.0625,0.25 0.28125,0.42187 0.23437,0.15625 0.5625,0.15625 0.45312,0 1.32812,-0.3125 l 0.28125,2.54688 q -1.15625,0.5 -2.60937,0.5 -0.89063,0 -1.60938,-0.29688 -0.70312,-0.29687 -1.04687,-0.76562 -0.32813,-0.48438 -0.45313,-1.29688 -0.10937,-0.57812 -0.10937,-2.3125 l 0,-5.4375 -1.51563,0 0,-2.625 1.51563,0 0,-2.46875 3.3125,-1.92187 0,4.39062 2.25,0 z m 10.47656,12.45313 0,-1.85938 q -0.6875,0.98438 -1.79687,1.5625 -1.10938,0.57813 -2.32813,0.57813 -1.26562,0 -2.26562,-0.54688 -0.98438,-0.5625 -1.4375,-1.54687 -0.4375,-1 -0.4375,-2.76563 l 0,-7.875 3.29687,0 0,5.71875 q 0,2.625 0.17188,3.21875 0.1875,0.59375 0.65625,0.9375 0.48437,0.34375 1.23437,0.34375 0.84375,0 1.5,-0.45312 0.67188,-0.46875 0.92188,-1.15625 0.25,-0.6875 0.25,-3.35938 l 0,-5.25 3.28125,0 0,12.45313 -3.04688,0 z m 12.17578,-12.45313 0,2.625 -2.25,0 0,5.01563 q 0,1.53125 0.0625,1.78125 0.0625,0.25 0.28125,0.42187 0.23438,0.15625 0.5625,0.15625 0.45313,0 1.32813,-0.3125 l 0.28125,2.54688 q -1.15625,0.5 -2.60938,0.5 -0.89062,0 -1.60937,-0.29688 -0.70313,-0.29687 -1.04688,-0.76562 -0.32812,-0.48438 -0.45312,-1.29688 -0.10938,-0.57812 -0.10938,-2.3125 l 0,-5.4375 -1.51562,0 0,-2.625 1.51562,0 0,-2.46875 3.3125,-1.92187 0,4.39062 2.25,0 z m 9.49219,8.48438 3.28125,0.5625 q -0.64063,1.79687 -2.01563,2.75 -1.35937,0.9375 -3.40625,0.9375 -3.25,0 -4.79687,-2.125 -1.23438,-1.70313 -1.23438,-4.28125 0,-3.09375 1.60938,-4.84375 1.625,-1.76563 4.09375,-1.76563 2.78125,0 4.375,1.84375 1.60937,1.82813 1.54687,5.60938 l -8.25,0 q 0.0312,1.46875 0.79688,2.28125 0.76562,0.8125 1.89062,0.8125 0.78125,0 1.29688,-0.42188 0.53125,-0.42187 0.8125,-1.35937 z m 0.1875,-3.32813 q -0.0469,-1.42187 -0.75,-2.15625 -0.70313,-0.75 -1.70313,-0.75 -1.07812,0 -1.78125,0.78125 -0.70312,0.78125 -0.6875,2.125 l 4.92188,0 z m 4.78514,3.75 3.3125,-0.51562 q 0.20313,0.96875 0.84375,1.46875 0.65625,0.5 1.8125,0.5 1.28125,0 1.92188,-0.46875 0.4375,-0.32813 0.4375,-0.89063 0,-0.375 -0.23438,-0.60937 -0.25,-0.23438 -1.10937,-0.4375 -3.98438,-0.875 -5.04688,-1.60938 -1.48437,-1 -1.48437,-2.79687 0,-1.625 1.28125,-2.71875 1.28125,-1.10938 3.96875,-1.10938 2.54687,0 3.78125,0.84375 1.25,0.82813 1.71875,2.45313 l -3.10938,0.57812 q -0.1875,-0.73437 -0.75,-1.10937 -0.5625,-0.39063 -1.59375,-0.39063 -1.29687,0 -1.85937,0.35938 -0.375,0.26562 -0.375,0.67187 0,0.34375 0.32812,0.59375 0.45313,0.32813 3.07813,0.9375 2.625,0.59375 3.67187,1.45313 1.03125,0.875 1.03125,2.45312 0,1.70313 -1.4375,2.9375 -1.42187,1.23438 -4.21875,1.23438 -2.54687,0 -4.03125,-1.03125 -1.48437,-1.03125 -1.9375,-2.79688 z" />
  <path
     style="fill:#000000;fill-rule:nonzero"
     inkscape:connector-curvature="0"
     id="path85-9"
     d="m 404.11646,429.16964 0,-17.1875 11.78125,0 0,2.90625 -8.3125,0 0,4.07812 7.17188,0 0,2.90625 -7.17188,0 0,7.29688 -3.46875,0 z m 17.08203,-8.65625 -2.98437,-0.53125 q 0.5,-1.8125 1.71875,-2.67188 1.23437,-0.875 3.67187,-0.875 2.20313,0 3.28125,0.53125 1.07813,0.51563 1.51563,1.32813 0.4375,0.79687 0.4375,2.9375 l -0.0312,3.84375 q 0,1.64062 0.15625,2.42187 0.15625,0.78125 0.59375,1.67188 l -3.26563,0 q -0.125,-0.32813 -0.3125,-0.96875 -0.0781,-0.29688 -0.125,-0.39063 -0.84375,0.8125 -1.8125,1.23438 -0.95312,0.40625 -2.03125,0.40625 -1.92187,0 -3.03125,-1.04688 -1.10937,-1.04687 -1.10937,-2.64062 0,-1.04688 0.5,-1.875 0.5,-0.82813 1.40625,-1.26563 0.92187,-0.4375 2.625,-0.76562 2.3125,-0.4375 3.20312,-0.8125 l 0,-0.32813 q 0,-0.95312 -0.46875,-1.34375 -0.46875,-0.40625 -1.76562,-0.40625 -0.89063,0 -1.39063,0.34375 -0.48437,0.34375 -0.78125,1.20313 z m 4.40625,2.67187 q -0.64062,0.21875 -2.01562,0.51563 -1.35938,0.28125 -1.78125,0.5625 -0.64063,0.46875 -0.64063,1.17187 0,0.6875 0.51563,1.1875 0.51562,0.5 1.3125,0.5 0.89062,0 1.6875,-0.57812 0.60937,-0.45313 0.79687,-1.09375 0.125,-0.42188 0.125,-1.60938 l 0,-0.65625 z m 17.33203,-2.78125 -3.25,0.57813 q -0.15625,-0.96875 -0.75,-1.45313 -0.57812,-0.5 -1.5,-0.5 -1.23437,0 -1.96875,0.85938 -0.71875,0.84375 -0.71875,2.82812 0,2.21875 0.73438,3.14063 0.75,0.90625 2,0.90625 0.9375,0 1.53125,-0.53125 0.60937,-0.53125 0.84375,-1.82813 l 3.23437,0.54688 q -0.5,2.21875 -1.9375,3.35937 -1.42187,1.14063 -3.82812,1.14063 -2.71875,0 -4.34375,-1.71875 -1.625,-1.73438 -1.625,-4.78125 0,-3.07813 1.625,-4.79688 1.625,-1.71875 4.40625,-1.71875 2.28125,0 3.60937,0.98438 1.34375,0.98437 1.9375,2.98437 z m 10.69141,8.76563 0,-1.85938 q -0.6875,0.98438 -1.79688,1.5625 -1.10937,0.57813 -2.32812,0.57813 -1.26563,0 -2.26563,-0.54688 -0.98437,-0.5625 -1.4375,-1.54687 -0.4375,-1 -0.4375,-2.76563 l 0,-7.875 3.29688,0 0,5.71875 q 0,2.625 0.17187,3.21875 0.1875,0.59375 0.65625,0.9375 0.48438,0.34375 1.23438,0.34375 0.84375,0 1.5,-0.45312 0.67187,-0.46875 0.92187,-1.15625 0.25,-0.6875 0.25,-3.35938 l 0,-5.25 3.28125,0 0,12.45313 -3.04687,0 z m 6.45703,0 0,-17.1875 3.29687,0 0,17.1875 -3.29687,0 z m 12.38672,-12.45313 0,2.625 -2.25,0 0,5.01563 q 0,1.53125 0.0625,1.78125 0.0625,0.25 0.28125,0.42187 0.23437,0.15625 0.5625,0.15625 0.45312,0 1.32812,-0.3125 l 0.28125,2.54688 q -1.15625,0.5 -2.60937,0.5 -0.89063,0 -1.60938,-0.29688 -0.70312,-0.29687 -1.04687,-0.76562 -0.32813,-0.48438 -0.45313,-1.29688 -0.10937,-0.57812 -0.10937,-2.3125 l 0,-5.4375 -1.51563,0 0,-2.625 1.51563,0 0,-2.46875 3.3125,-1.92187 0,4.39062 2.25,0 z m 2.27344,-1.6875 0,-3.04687 3.29687,0 0,3.04687 -3.29687,0 z m 0,14.14063 0,-12.45313 3.29687,0 0,12.45313 -3.29687,0 z m 13.88671,-3.96875 3.28125,0.5625 q -0.64062,1.79687 -2.01562,2.75 -1.35938,0.9375 -3.40625,0.9375 -3.25,0 -4.79688,-2.125 -1.23437,-1.70313 -1.23437,-4.28125 0,-3.09375 1.60937,-4.84375 1.625,-1.76563 4.09375,-1.76563 2.78125,0 4.375,1.84375 1.60938,1.82813 1.54688,5.60938 l -8.25,0 q 0.0312,1.46875 0.79687,2.28125 0.76563,0.8125 1.89063,0.8125 0.78125,0 1.29687,-0.42188 0.53125,-0.42187 0.8125,-1.35937 z m 0.1875,-3.32813 q -0.0469,-1.42187 -0.75,-2.15625 -0.70312,-0.75 -1.70312,-0.75 -1.07813,0 -1.78125,0.78125 -0.70313,0.78125 -0.6875,2.125 l 4.92187,0 z m 4.78516,3.75 3.31247,-0.51562 q 0.20313,0.96875 0.84375,1.46875 0.65625,0.5 1.8125,0.5 1.28125,0 1.92188,-0.46875 0.4375,-0.32813 0.4375,-0.89063 0,-0.375 -0.23438,-0.60937 -0.25,-0.23438 -1.10937,-0.4375 -3.98438,-0.875 -5.04688,-1.60938 -1.48433,-1 -1.48433,-2.79687 0,-1.625 1.28121,-2.71875 1.28125,-1.10938 3.96875,-1.10938 2.54687,0 3.78125,0.84375 1.25,0.82813 1.71875,2.45313 l -3.10938,0.57812 q -0.1875,-0.73437 -0.75,-1.10937 -0.5625,-0.39063 -1.59375,-0.39063 -1.29687,0 -1.85937,0.35938 -0.375,0.26562 -0.375,0.67187 0,0.34375 0.32812,0.59375 0.45313,0.32813 3.07813,0.9375 2.625,0.59375 3.67187,1.45313 1.03125,0.875 1.03125,2.45312 0,1.70313 -1.4375,2.9375 -1.42187,1.23438 -4.21875,1.23438 -2.54687,0 -4.03125,-1.03125 -1.48433,-1.03125 -1.93747,-2.79688 z" />
  <path
     style="fill:#000000;fill-rule:nonzero"
     inkscape:connector-curvature="0"
     id="path35-3"
     d="m 1006.9871,250.70267 q 0,-2.625 0.7813,-4.40625 0.5937,-1.3125 1.5937,-2.35938 1.0156,-1.04687 2.2344,-1.54687 1.5937,-0.67188 3.7031,-0.67188 3.7969,0 6.0625,2.35938 2.2813,2.34375 2.2813,6.54687 0,4.15625 -2.2657,6.51563 -2.25,2.34375 -6.0312,2.34375 -3.8438,0 -6.1094,-2.34375 -2.25,-2.34375 -2.25,-6.4375 z m 3.5781,-0.125 q 0,2.92187 1.3438,4.4375 1.3437,1.5 3.4219,1.5 2.0781,0 3.4062,-1.48438 1.3281,-1.5 1.3281,-4.5 0,-2.95312 -1.2968,-4.40625 -1.2969,-1.45312 -3.4375,-1.45312 -2.1407,0 -3.4532,1.48437 -1.3125,1.46875 -1.3125,4.42188 z m 21.4805,-3.84375 0,2.625 -2.25,0 0,5.01562 q 0,1.53125 0.062,1.78125 0.062,0.25 0.2812,0.42188 0.2344,0.15625 0.5625,0.15625 0.4532,0 1.3282,-0.3125 l 0.2812,2.54687 q -1.1562,0.5 -2.6094,0.5 -0.8906,0 -1.6093,-0.29687 -0.7032,-0.29688 -1.0469,-0.76563 -0.3281,-0.48437 -0.4531,-1.29687 -0.1094,-0.57813 -0.1094,-2.3125 l 0,-5.4375 -1.5156,0 0,-2.625 1.5156,0 0,-2.46875 3.3125,-1.92188 0,4.39063 2.25,0 z m 5.5547,-4.73438 0,6.32813 q 1.5937,-1.875 3.8125,-1.875 1.1406,0 2.0469,0.42187 0.9218,0.42188 1.375,1.07813 0.4687,0.65625 0.6406,1.45312 0.1719,0.79688 0.1719,2.48438 l 0,7.29687 -3.2969,0 0,-6.57812 q 0,-1.95313 -0.1875,-2.48438 -0.1875,-0.53125 -0.6719,-0.82812 -0.4687,-0.3125 -1.1719,-0.3125 -0.8281,0 -1.4687,0.40625 -0.6406,0.39062 -0.9531,1.1875 -0.2969,0.79687 -0.2969,2.375 l 0,6.23437 -3.2813,0 0,-17.1875 3.2813,0 z m 18.5976,13.21875 3.2813,0.5625 q -0.6406,1.79688 -2.0156,2.75 -1.3594,0.9375 -3.4063,0.9375 -3.25,0 -4.7969,-2.125 -1.2343,-1.70312 -1.2343,-4.28125 0,-3.09375 1.6093,-4.84375 1.625,-1.76562 4.0938,-1.76562 2.7812,0 4.375,1.84375 1.6094,1.82812 1.5469,5.60937 l -8.25,0 q 0.031,1.46875 0.7968,2.28125 0.7657,0.8125 1.8907,0.8125 0.7812,0 1.2968,-0.42187 0.5313,-0.42188 0.8125,-1.35938 z m 0.1875,-3.32812 q -0.047,-1.42188 -0.75,-2.15625 -0.7031,-0.75 -1.7031,-0.75 -1.0781,0 -1.7812,0.78125 -0.7032,0.78125 -0.6875,2.125 l 4.9218,0 z m 9.0977,7.29687 -3.2969,0 0,-12.45312 3.0625,0 0,1.78125 q 0.7813,-1.26563 1.4063,-1.65625 0.6406,-0.40625 1.4375,-0.40625 1.125,0 2.1562,0.625 l -1.0156,2.875 q -0.8281,-0.54688 -1.5469,-0.54688 -0.6875,0 -1.1719,0.39063 -0.4843,0.375 -0.7656,1.375 -0.2656,1 -0.2656,4.17187 l 0,3.84375 z" />
  <path
     style="fill:#000000;fill-rule:nonzero"
     inkscape:connector-curvature="0"
     id="path275-6"
     d="m 876.98237,119.19718 q 0,-2.625 0.78125,-4.40625 0.59375,-1.3125 1.59375,-2.35938 1.01562,-1.04687 2.23437,-1.54687 1.59375,-0.67188 3.70313,-0.67188 3.79687,0 6.0625,2.35938 2.28125,2.34375 2.28125,6.54687 0,4.15625 -2.26563,6.51563 -2.25,2.34375 -6.03125,2.34375 -3.84375,0 -6.10937,-2.34375 -2.25,-2.34375 -2.25,-6.4375 z m 3.57812,-0.125 q 0,2.92187 1.34375,4.4375 1.34375,1.5 3.42188,1.5 2.07812,0 3.40625,-1.48438 1.32812,-1.5 1.32812,-4.5 0,-2.95312 -1.29687,-4.40625 -1.29688,-1.45312 -3.4375,-1.45312 -2.14063,0 -3.45313,1.48437 -1.3125,1.46875 -1.3125,4.42188 z m 21.48047,-3.84375 0,2.625 -2.25,0 0,5.01562 q 0,1.53125 0.0625,1.78125 0.0625,0.25 0.28125,0.42188 0.23438,0.15625 0.5625,0.15625 0.45313,0 1.32813,-0.3125 l 0.28125,2.54687 q -1.15625,0.5 -2.60938,0.5 -0.89062,0 -1.60937,-0.29687 -0.70313,-0.29688 -1.04688,-0.76563 -0.32812,-0.48437 -0.45312,-1.29687 -0.10938,-0.57813 -0.10938,-2.3125 l 0,-5.4375 -1.51562,0 0,-2.625 1.51562,0 0,-2.46875 3.3125,-1.92188 0,4.39063 2.25,0 z m 5.55469,-4.73438 0,6.32813 q 1.59375,-1.875 3.8125,-1.875 1.14063,0 2.04688,0.42187 0.92187,0.42188 1.375,1.07813 0.46875,0.65625 0.64062,1.45312 0.17188,0.79688 0.17188,2.48438 l 0,7.29687 -3.29688,0 0,-6.57812 q 0,-1.95313 -0.1875,-2.48438 -0.1875,-0.53125 -0.67187,-0.82812 -0.46875,-0.3125 -1.17188,-0.3125 -0.82812,0 -1.46875,0.40625 -0.64062,0.39062 -0.95312,1.1875 -0.29688,0.79687 -0.29688,2.375 l 0,6.23437 -3.28125,0 0,-17.1875 3.28125,0 z m 18.59766,13.21875 3.28125,0.5625 q -0.64063,1.79688 -2.01563,2.75 -1.35937,0.9375 -3.40625,0.9375 -3.25,0 -4.79687,-2.125 -1.23438,-1.70312 -1.23438,-4.28125 0,-3.09375 1.60938,-4.84375 1.625,-1.76562 4.09375,-1.76562 2.78125,0 4.375,1.84375 1.60937,1.82812 1.54687,5.60937 l -8.25,0 q 0.0312,1.46875 0.79688,2.28125 0.76562,0.8125 1.89062,0.8125 0.78125,0 1.29688,-0.42187 0.53125,-0.42188 0.8125,-1.35938 z m 0.1875,-3.32812 q -0.0469,-1.42188 -0.75,-2.15625 -0.70313,-0.75 -1.70313,-0.75 -1.07812,0 -1.78125,0.78125 -0.70312,0.78125 -0.6875,2.125 l 4.92188,0 z m 9.09765,7.29687 -3.29687,0 0,-12.45312 3.0625,0 0,1.78125 q 0.78125,-1.26563 1.40625,-1.65625 0.64062,-0.40625 1.4375,-0.40625 1.125,0 2.15625,0.625 l -1.01563,2.875 q -0.82812,-0.54688 -1.54687,-0.54688 -0.6875,0 -1.17188,0.39063 -0.48437,0.375 -0.76562,1.375 -0.26563,1 -0.26563,4.17187 l 0,3.84375 z m 23.71094,-8.76562 -3.25,0.57812 q -0.15625,-0.96875 -0.75,-1.45312 -0.57812,-0.5 -1.5,-0.5 -1.23437,0 -1.96875,0.85937 -0.71875,0.84375 -0.71875,2.82813 0,2.21875 0.73438,3.14062 0.75,0.90625 2,0.90625 0.9375,0 1.53125,-0.53125 0.60937,-0.53125 0.84375,-1.82812 l 3.23437,0.54687 q -0.5,2.21875 -1.9375,3.35938 -1.42187,1.14062 -3.82812,1.14062 -2.71875,0 -4.34375,-1.71875 -1.625,-1.73437 -1.625,-4.78125 0,-3.07812 1.625,-4.79687 1.625,-1.71875 4.40625,-1.71875 2.28125,0 3.60937,0.98437 1.34375,0.98438 1.9375,2.98438 z m 1.73828,2.35937 q 0,-1.64062 0.79688,-3.17187 0.8125,-1.53125 2.29687,-2.34375 1.48438,-0.8125 3.3125,-0.8125 2.82813,0 4.625,1.84375 1.8125,1.82812 1.8125,4.625 0,2.82812 -1.82812,4.6875 -1.82813,1.85937 -4.59375,1.85937 -1.70313,0 -3.26563,-0.76562 -1.54687,-0.78125 -2.35937,-2.26563 -0.79688,-1.5 -0.79688,-3.65625 z m 3.375,0.1875 q 0,1.84375 0.875,2.82813 0.875,0.98437 2.17188,0.98437 1.28125,0 2.15625,-0.98437 0.875,-0.98438 0.875,-2.85938 0,-1.82812 -0.875,-2.8125 -0.875,-0.98437 -2.15625,-0.98437 -1.29688,0 -2.17188,0.98437 -0.875,0.98438 -0.875,2.84375 z m 20.23824,6.21875 0,-1.85937 q -0.6875,0.98437 -1.7968,1.5625 -1.1094,0.57812 -2.3282,0.57812 -1.2656,0 -2.2656,-0.54687 -0.98436,-0.5625 -1.43748,-1.54688 -0.4375,-1 -0.4375,-2.76562 l 0,-7.875 3.29688,0 0,5.71875 q 0,2.625 0.1719,3.21875 0.1875,0.59375 0.6562,0.9375 0.4844,0.34375 1.2344,0.34375 0.8437,0 1.5,-0.45313 0.6719,-0.46875 0.9219,-1.15625 0.25,-0.6875 0.25,-3.35937 l 0,-5.25 3.2812,0 0,12.45312 -3.0469,0 z m 17.78518,0 -3.29688,0 0,-6.35937 q 0,-2.01563 -0.2187,-2.59375 -0.2032,-0.59375 -0.6875,-0.92188 -0.4688,-0.32812 -1.125,-0.32812 -0.8594,0 -1.5469,0.46875 -0.6719,0.46875 -0.9219,1.25 -0.25,0.76562 -0.25,2.84375 l 0,5.64062 -3.2969,0 0,-12.45312 3.0625,0 0,1.82812 q 1.625,-2.10937 4.0938,-2.10937 1.0937,0 1.98438,0.40625 0.9062,0.39062 1.375,1 0.4687,0.60937 0.6406,1.39062 0.1875,0.76563 0.1875,2.20313 l 0,7.73437 z m 14.1913,-8.76562 -3.25,0.57812 q -0.1562,-0.96875 -0.75,-1.45312 -0.5781,-0.5 -1.5,-0.5 -1.2344,0 -1.9687,0.85937 -0.7187,0.84375 -0.7187,2.82813 0,2.21875 0.7343,3.14062 0.75,0.90625 2,0.90625 0.9375,0 1.5312,-0.53125 0.6094,-0.53125 0.8438,-1.82812 l 3.2344,0.54687 q -0.5,2.21875 -1.9375,3.35938 -1.4219,1.14062 -3.8282,1.14062 -2.7186,0 -4.3436,-1.71875 -1.625,-1.73437 -1.625,-4.78125 0,-3.07812 1.625,-4.79687 1.625,-1.71875 4.4061,-1.71875 2.2813,0 3.6094,0.98437 1.3438,0.98438 1.9375,2.98438 z m 2.4883,-5.375 0,-3.04688 3.2969,0 0,3.04688 -3.2969,0 z m 0,14.14062 0,-12.45312 3.2969,0 0,12.45312 -3.2969,0 z m 6.668,0 0,-17.1875 3.2968,0 0,17.1875 -3.2968,0 z m 5.5117,-3.54687 3.3125,-0.51563 q 0.2031,0.96875 0.8437,1.46875 0.6563,0.5 1.8125,0.5 1.2813,0 1.9219,-0.46875 0.4375,-0.32812 0.4375,-0.89062 0,-0.375 -0.2344,-0.60938 -0.25,-0.23437 -1.1093,-0.4375 -3.9844,-0.875 -5.0469,-1.60937 -1.4844,-1 -1.4844,-2.79688 0,-1.625 1.2813,-2.71875 1.2812,-1.10937 3.9687,-1.10937 2.5469,0 3.7813,0.84375 1.25,0.82812 1.7187,2.45312 l -3.1094,0.57813 q -0.1875,-0.73438 -0.75,-1.10938 -0.5625,-0.39062 -1.5937,-0.39062 -1.2969,0 -1.8594,0.35937 -0.375,0.26563 -0.375,0.67188 0,0.34375 0.3281,0.59375 0.4532,0.32812 3.0782,0.9375 2.625,0.59375 3.6718,1.45312 1.0313,0.875 1.0313,2.45313 0,1.70312 -1.4375,2.9375 -1.4219,1.23437 -4.2188,1.23437 -2.5468,0 -4.0312,-1.03125 -1.4844,-1.03125 -1.9375,-2.79687 z" />
</svg>
